BLOCK40/SES4049/5654049002_h_00.WAV	N	S
BLOCK40/SES4049/5654049003_h_00.WAV	N	S
BLOCK40/SES4049/5654049005_h_00.WAV	N	S
BLOCK40/SES4049/5654049006_h_00.WAV	N	S
BLOCK40/SES4049/5654049007_h_00.WAV	N	S
BLOCK40/SES4049/5654049009_h_00.WAV	N	S
BLOCK40/SES4049/5654049011_h_00.WAV	N	S
BLOCK40/SES4049/5654049016_h_00.WAV	N	S
BLOCK40/SES4049/5654049017_h_00.WAV	N	S
BLOCK40/SES4049/5654049018_h_00.WAV	N	S
BLOCK40/SES4049/5654049021_h_00.WAV	N	S
BLOCK40/SES4049/5654049022_h_00.WAV	N	S
BLOCK40/SES4049/5654049025_h_00.WAV	N	S
BLOCK40/SES4049/5654049027_h_00.WAV	N	S
BLOCK40/SES4049/5654049028_h_00.WAV	N	S
BLOCK40/SES4049/5654049033_h_00.WAV	N	S
BLOCK40/SES4049/5654049035_h_00.WAV	N	S
BLOCK40/SES4049/5654049037_h_00.WAV	N	S
BLOCK40/SES4049/5654049039_h_00.WAV	N	S
BLOCK40/SES4049/5654049040_h_00.WAV	N	S
BLOCK40/SES4049/5654049043_h_00.WAV	N	S
BLOCK40/SES4049/5654049044_h_00.WAV	N	S
BLOCK40/SES4049/5654049045_h_00.WAV	N	S
BLOCK40/SES4049/5654049047_h_00.WAV	N	S
BLOCK40/SES4049/5654049052_h_00.WAV	N	S
BLOCK40/SES4049/5654049053_h_00.WAV	N	S
BLOCK40/SES4049/5654049054_h_00.WAV	N	S
BLOCK40/SES4049/5654049056_h_00.WAV	N	S
BLOCK40/SES4049/5654049057_h_00.WAV	N	S
BLOCK40/SES4049/5654049058_h_00.WAV	N	S
BLOCK40/SES4021/5334021002_h_00.WAV	N	S
BLOCK40/SES4021/5334021003_h_00.WAV	N	S
BLOCK40/SES4021/5334021005_h_00.WAV	N	S
BLOCK40/SES4021/5334021006_h_00.WAV	N	S
BLOCK40/SES4021/5334021007_h_00.WAV	N	S
BLOCK40/SES4021/5334021009_h_00.WAV	N	S
BLOCK40/SES4021/5334021011_h_00.WAV	N	S
BLOCK40/SES4021/5334021016_h_00.WAV	N	S
BLOCK40/SES4021/5334021017_h_00.WAV	N	S
BLOCK40/SES4021/5334021018_h_00.WAV	N	S
BLOCK40/SES4021/5334021021_h_00.WAV	N	S
BLOCK40/SES4021/5334021022_h_00.WAV	N	S
BLOCK40/SES4021/5334021025_h_00.WAV	N	S
BLOCK40/SES4021/5334021027_h_00.WAV	N	S
BLOCK40/SES4021/5334021028_h_00.WAV	N	S
BLOCK40/SES4021/5334021033_h_00.WAV	N	S
BLOCK40/SES4021/5334021035_h_00.WAV	N	S
BLOCK40/SES4021/5334021037_h_00.WAV	N	S
BLOCK40/SES4021/5334021039_h_00.WAV	N	S
BLOCK40/SES4021/5334021040_h_00.WAV	N	S
BLOCK40/SES4021/5334021043_h_00.WAV	N	S
BLOCK40/SES4021/5334021044_h_00.WAV	N	S
BLOCK40/SES4021/5334021045_h_00.WAV	N	S
BLOCK40/SES4021/5334021047_h_00.WAV	N	S
BLOCK40/SES4021/5334021052_h_00.WAV	N	S
BLOCK40/SES4021/5334021053_h_00.WAV	N	S
BLOCK40/SES4021/5334021054_h_00.WAV	N	S
BLOCK40/SES4021/5334021056_h_00.WAV	N	S
BLOCK40/SES4021/5334021057_h_00.WAV	N	S
BLOCK40/SES4021/5334021058_h_00.WAV	N	S
BLOCK20/SES2016/0192016002_h_00.WAV	N	S
BLOCK20/SES2016/0192016003_h_00.WAV	N	S
BLOCK20/SES2016/0192016005_h_00.WAV	N	S
BLOCK20/SES2016/0192016006_h_00.WAV	N	S
BLOCK20/SES2016/0192016007_h_00.WAV	N	S
BLOCK20/SES2016/0192016009_h_00.WAV	N	S
BLOCK20/SES2016/0192016011_h_00.WAV	N	S
BLOCK20/SES2016/0192016016_h_00.WAV	N	S
BLOCK20/SES2016/0192016017_h_00.WAV	N	S
BLOCK20/SES2016/0192016018_h_00.WAV	N	S
BLOCK20/SES2016/0192016021_h_00.WAV	N	S
BLOCK20/SES2016/0192016022_h_00.WAV	N	S
BLOCK20/SES2016/0192016025_h_00.WAV	N	S
BLOCK20/SES2016/0192016027_h_00.WAV	N	S
BLOCK20/SES2016/0192016028_h_00.WAV	N	S
BLOCK20/SES2016/0192016033_h_00.WAV	N	S
BLOCK20/SES2016/0192016035_h_00.WAV	N	S
BLOCK20/SES2016/0192016037_h_00.WAV	N	S
BLOCK20/SES2016/0192016039_h_00.WAV	N	S
BLOCK20/SES2016/0192016040_h_00.WAV	N	S
BLOCK20/SES2016/0192016043_h_00.WAV	N	S
BLOCK20/SES2016/0192016044_h_00.WAV	N	S
BLOCK20/SES2016/0192016045_h_00.WAV	N	S
BLOCK20/SES2016/0192016047_h_00.WAV	N	S
BLOCK20/SES2016/0192016052_h_00.WAV	N	S
BLOCK20/SES2016/0192016053_h_00.WAV	N	S
BLOCK20/SES2016/0192016054_h_00.WAV	N	S
BLOCK20/SES2016/0192016056_h_00.WAV	N	S
BLOCK20/SES2016/0192016057_h_00.WAV	N	S
BLOCK20/SES2016/0192016058_h_00.WAV	N	S
BLOCK20/SES2042/0392042002_h_00.WAV	N	S
BLOCK20/SES2042/0392042003_h_00.WAV	N	S
BLOCK20/SES2042/0392042005_h_00.WAV	N	S
BLOCK20/SES2042/0392042006_h_00.WAV	N	S
BLOCK20/SES2042/0392042007_h_00.WAV	N	S
BLOCK20/SES2042/0392042009_h_00.WAV	N	S
BLOCK20/SES2042/0392042011_h_00.WAV	N	S
BLOCK20/SES2042/0392042016_h_00.WAV	N	S
BLOCK20/SES2042/0392042017_h_00.WAV	N	S
BLOCK20/SES2042/0392042018_h_00.WAV	N	S
BLOCK20/SES2042/0392042021_h_00.WAV	N	S
BLOCK20/SES2042/0392042022_h_00.WAV	N	S
BLOCK20/SES2042/0392042025_h_00.WAV	N	S
BLOCK20/SES2042/0392042027_h_00.WAV	N	S
BLOCK20/SES2042/0392042028_h_00.WAV	N	S
BLOCK20/SES2042/0392042033_h_00.WAV	N	S
BLOCK20/SES2042/0392042035_h_00.WAV	N	S
BLOCK20/SES2042/0392042037_h_00.WAV	N	S
BLOCK20/SES2042/0392042039_h_00.WAV	N	S
BLOCK20/SES2042/0392042040_h_00.WAV	N	S
BLOCK20/SES2042/0392042043_h_00.WAV	N	S
BLOCK20/SES2042/0392042044_h_00.WAV	N	S
BLOCK20/SES2042/0392042045_h_00.WAV	N	S
BLOCK20/SES2042/0392042047_h_00.WAV	N	S
BLOCK20/SES2042/0392042052_h_00.WAV	N	S
BLOCK20/SES2042/0392042053_h_00.WAV	N	S
BLOCK20/SES2042/0392042054_h_00.WAV	N	S
BLOCK20/SES2042/0392042056_h_00.WAV	N	S
BLOCK20/SES2042/0392042057_h_00.WAV	N	S
BLOCK20/SES2042/0392042058_h_00.WAV	N	S
BLOCK40/SES4078/5824078002_h_00.WAV	N	S
BLOCK40/SES4078/5824078003_h_00.WAV	N	S
BLOCK40/SES4078/5824078005_h_00.WAV	N	S
BLOCK40/SES4078/5824078006_h_00.WAV	N	S
BLOCK40/SES4078/5824078007_h_00.WAV	N	S
BLOCK40/SES4078/5824078009_h_00.WAV	N	S
BLOCK40/SES4078/5824078011_h_00.WAV	N	S
BLOCK40/SES4078/5824078016_h_00.WAV	N	S
BLOCK40/SES4078/5824078017_h_00.WAV	N	S
BLOCK40/SES4078/5824078018_h_00.WAV	N	S
BLOCK40/SES4078/5824078021_h_00.WAV	N	S
BLOCK40/SES4078/5824078022_h_00.WAV	N	S
BLOCK40/SES4078/5824078025_h_00.WAV	N	S
BLOCK40/SES4078/5824078027_h_00.WAV	N	S
BLOCK40/SES4078/5824078028_h_00.WAV	N	S
BLOCK40/SES4078/5824078033_h_00.WAV	N	S
BLOCK40/SES4078/5824078035_h_00.WAV	N	S
BLOCK40/SES4078/5824078037_h_00.WAV	N	S
BLOCK40/SES4078/5824078039_h_00.WAV	N	S
BLOCK40/SES4078/5824078040_h_00.WAV	N	S
BLOCK40/SES4078/5824078043_h_00.WAV	N	S
BLOCK40/SES4078/5824078044_h_00.WAV	N	S
BLOCK40/SES4078/5824078045_h_00.WAV	N	S
BLOCK40/SES4078/5824078047_h_00.WAV	N	S
BLOCK40/SES4078/5824078052_h_00.WAV	N	S
BLOCK40/SES4078/5824078053_h_00.WAV	N	S
BLOCK40/SES4078/5824078054_h_00.WAV	N	S
BLOCK40/SES4078/5824078056_h_00.WAV	N	S
BLOCK40/SES4078/5824078057_h_00.WAV	N	S
BLOCK40/SES4078/5824078058_h_00.WAV	N	S
BLOCK20/SES2009/0072009002_h_00.WAV	N	S
BLOCK20/SES2009/0072009003_h_00.WAV	N	S
BLOCK20/SES2009/0072009005_h_00.WAV	N	S
BLOCK20/SES2009/0072009006_h_00.WAV	N	S
BLOCK20/SES2009/0072009007_h_00.WAV	N	S
BLOCK20/SES2009/0072009009_h_00.WAV	N	S
BLOCK20/SES2009/0072009011_h_00.WAV	N	S
BLOCK20/SES2009/0072009016_h_00.WAV	N	S
BLOCK20/SES2009/0072009017_h_00.WAV	N	S
BLOCK20/SES2009/0072009018_h_00.WAV	N	S
BLOCK20/SES2009/0072009021_h_00.WAV	N	S
BLOCK20/SES2009/0072009022_h_00.WAV	N	S
BLOCK20/SES2009/0072009025_h_00.WAV	N	S
BLOCK20/SES2009/0072009027_h_00.WAV	N	S
BLOCK20/SES2009/0072009028_h_00.WAV	N	S
BLOCK20/SES2009/0072009033_h_00.WAV	N	S
BLOCK20/SES2009/0072009035_h_00.WAV	N	S
BLOCK20/SES2009/0072009037_h_00.WAV	N	S
BLOCK20/SES2009/0072009039_h_00.WAV	N	S
BLOCK20/SES2009/0072009040_h_00.WAV	N	S
BLOCK20/SES2009/0072009043_h_00.WAV	N	S
BLOCK20/SES2009/0072009044_h_00.WAV	N	S
BLOCK20/SES2009/0072009045_h_00.WAV	N	S
BLOCK20/SES2009/0072009047_h_00.WAV	N	S
BLOCK20/SES2009/0072009052_h_00.WAV	N	S
BLOCK20/SES2009/0072009053_h_00.WAV	N	S
BLOCK20/SES2009/0072009054_h_00.WAV	N	S
BLOCK20/SES2009/0072009056_h_00.WAV	N	S
BLOCK20/SES2009/0072009057_h_00.WAV	N	S
BLOCK20/SES2009/0072009058_h_00.WAV	N	S
BLOCK20/SES2058/0742058002_h_00.WAV	N	S
BLOCK20/SES2058/0742058003_h_00.WAV	N	S
BLOCK20/SES2058/0742058005_h_00.WAV	N	S
BLOCK20/SES2058/0742058006_h_00.WAV	N	S
BLOCK20/SES2058/0742058007_h_00.WAV	N	S
BLOCK20/SES2058/0742058009_h_00.WAV	N	S
BLOCK20/SES2058/0742058011_h_00.WAV	N	S
BLOCK20/SES2058/0742058016_h_00.WAV	N	S
BLOCK20/SES2058/0742058017_h_00.WAV	N	S
BLOCK20/SES2058/0742058018_h_00.WAV	N	S
BLOCK20/SES2058/0742058021_h_00.WAV	N	S
BLOCK20/SES2058/0742058022_h_00.WAV	N	S
BLOCK20/SES2058/0742058025_h_00.WAV	N	S
BLOCK20/SES2058/0742058027_h_00.WAV	N	S
BLOCK20/SES2058/0742058028_h_00.WAV	N	S
BLOCK20/SES2058/0742058033_h_00.WAV	N	S
BLOCK20/SES2058/0742058035_h_00.WAV	N	S
BLOCK20/SES2058/0742058037_h_00.WAV	N	S
BLOCK20/SES2058/0742058039_h_00.WAV	N	S
BLOCK20/SES2058/0742058040_h_00.WAV	N	S
BLOCK20/SES2058/0742058043_h_00.WAV	N	S
BLOCK20/SES2058/0742058044_h_00.WAV	N	S
BLOCK20/SES2058/0742058045_h_00.WAV	N	S
BLOCK20/SES2058/0742058047_h_00.WAV	N	S
BLOCK20/SES2058/0742058052_h_00.WAV	N	S
BLOCK20/SES2058/0742058053_h_00.WAV	N	S
BLOCK20/SES2058/0742058054_h_00.WAV	N	S
BLOCK20/SES2058/0742058056_h_00.WAV	N	S
BLOCK20/SES2058/0742058057_h_00.WAV	N	S
BLOCK20/SES2058/0742058058_h_00.WAV	N	S
BLOCK40/SES4030/5424030002_h_00.WAV	N	S
BLOCK40/SES4030/5424030003_h_00.WAV	N	S
BLOCK40/SES4030/5424030005_h_00.WAV	N	S
BLOCK40/SES4030/5424030006_h_00.WAV	N	S
BLOCK40/SES4030/5424030007_h_00.WAV	N	S
BLOCK40/SES4030/5424030009_h_00.WAV	N	S
BLOCK40/SES4030/5424030011_h_00.WAV	N	S
BLOCK40/SES4030/5424030016_h_00.WAV	N	S
BLOCK40/SES4030/5424030017_h_00.WAV	N	S
BLOCK40/SES4030/5424030018_h_00.WAV	N	S
BLOCK40/SES4030/5424030021_h_00.WAV	N	S
BLOCK40/SES4030/5424030022_h_00.WAV	N	S
BLOCK40/SES4030/5424030025_h_00.WAV	N	S
BLOCK40/SES4030/5424030027_h_00.WAV	N	S
BLOCK40/SES4030/5424030028_h_00.WAV	N	S
BLOCK40/SES4030/5424030033_h_00.WAV	N	S
BLOCK40/SES4030/5424030035_h_00.WAV	N	S
BLOCK40/SES4030/5424030037_h_00.WAV	N	S
BLOCK40/SES4030/5424030039_h_00.WAV	N	S
BLOCK40/SES4030/5424030040_h_00.WAV	N	S
BLOCK40/SES4030/5424030043_h_00.WAV	N	S
BLOCK40/SES4030/5424030044_h_00.WAV	N	S
BLOCK40/SES4030/5424030045_h_00.WAV	N	S
BLOCK40/SES4030/5424030047_h_00.WAV	N	S
BLOCK40/SES4030/5424030052_h_00.WAV	N	S
BLOCK40/SES4030/5424030053_h_00.WAV	N	S
BLOCK40/SES4030/5424030054_h_00.WAV	N	S
BLOCK40/SES4030/5424030056_h_00.WAV	N	S
BLOCK40/SES4030/5424030057_h_00.WAV	N	S
BLOCK40/SES4030/5424030058_h_00.WAV	N	S
BLOCK20/SES2056/0722056002_h_00.WAV	N	S
BLOCK20/SES2056/0722056003_h_00.WAV	N	S
BLOCK20/SES2056/0722056005_h_00.WAV	N	S
BLOCK20/SES2056/0722056006_h_00.WAV	N	S
BLOCK20/SES2056/0722056007_h_00.WAV	N	S
BLOCK20/SES2056/0722056009_h_00.WAV	N	S
BLOCK20/SES2056/0722056011_h_00.WAV	N	S
BLOCK20/SES2056/0722056016_h_00.WAV	N	S
BLOCK20/SES2056/0722056017_h_00.WAV	N	S
BLOCK20/SES2056/0722056018_h_00.WAV	N	S
BLOCK20/SES2056/0722056021_h_00.WAV	N	S
BLOCK20/SES2056/0722056022_h_00.WAV	N	S
BLOCK20/SES2056/0722056025_h_00.WAV	N	S
BLOCK20/SES2056/0722056027_h_00.WAV	N	S
BLOCK20/SES2056/0722056028_h_00.WAV	N	S
BLOCK20/SES2056/0722056033_h_00.WAV	N	S
BLOCK20/SES2056/0722056035_h_00.WAV	N	S
BLOCK20/SES2056/0722056037_h_00.WAV	N	S
BLOCK20/SES2056/0722056039_h_00.WAV	N	S
BLOCK20/SES2056/0722056040_h_00.WAV	N	S
BLOCK20/SES2056/0722056043_h_00.WAV	N	S
BLOCK20/SES2056/0722056044_h_00.WAV	N	S
BLOCK20/SES2056/0722056045_h_00.WAV	N	S
BLOCK20/SES2056/0722056047_h_00.WAV	N	S
BLOCK20/SES2056/0722056052_h_00.WAV	N	S
BLOCK20/SES2056/0722056053_h_00.WAV	N	S
BLOCK20/SES2056/0722056054_h_00.WAV	N	S
BLOCK20/SES2056/0722056056_h_00.WAV	N	S
BLOCK20/SES2056/0722056057_h_00.WAV	N	S
BLOCK20/SES2056/0722056058_h_00.WAV	N	S
BLOCK40/SES4052/5764052002_h_00.WAV	N	S
BLOCK40/SES4052/5764052003_h_00.WAV	N	S
BLOCK40/SES4052/5764052005_h_00.WAV	N	S
BLOCK40/SES4052/5764052006_h_00.WAV	N	S
BLOCK40/SES4052/5764052007_h_00.WAV	N	S
BLOCK40/SES4052/5764052009_h_00.WAV	N	S
BLOCK40/SES4052/5764052011_h_00.WAV	N	S
BLOCK40/SES4052/5764052016_h_00.WAV	N	S
BLOCK40/SES4052/5764052017_h_00.WAV	N	S
BLOCK40/SES4052/5764052018_h_00.WAV	N	S
BLOCK40/SES4052/5764052021_h_00.WAV	N	S
BLOCK40/SES4052/5764052022_h_00.WAV	N	S
BLOCK40/SES4052/5764052025_h_00.WAV	N	S
BLOCK40/SES4052/5764052027_h_00.WAV	N	S
BLOCK40/SES4052/5764052028_h_00.WAV	N	S
BLOCK40/SES4052/5764052033_h_00.WAV	N	S
BLOCK40/SES4052/5764052035_h_00.WAV	N	S
BLOCK40/SES4052/5764052037_h_00.WAV	N	S
BLOCK40/SES4052/5764052039_h_00.WAV	N	S
BLOCK40/SES4052/5764052040_h_00.WAV	N	S
BLOCK40/SES4052/5764052043_h_00.WAV	N	S
BLOCK40/SES4052/5764052044_h_00.WAV	N	S
BLOCK40/SES4052/5764052045_h_00.WAV	N	S
BLOCK40/SES4052/5764052047_h_00.WAV	N	S
BLOCK40/SES4052/5764052052_h_00.WAV	N	S
BLOCK40/SES4052/5764052053_h_00.WAV	N	S
BLOCK40/SES4052/5764052054_h_00.WAV	N	S
BLOCK40/SES4052/5764052056_h_00.WAV	N	S
BLOCK40/SES4052/5764052057_h_00.WAV	N	S
BLOCK40/SES4052/5764052058_h_00.WAV	N	S
BLOCK40/SES4027/5264027002_h_00.WAV	N	S
BLOCK40/SES4027/5264027003_h_00.WAV	N	S
BLOCK40/SES4027/5264027005_h_00.WAV	N	S
BLOCK40/SES4027/5264027006_h_00.WAV	N	S
BLOCK40/SES4027/5264027007_h_00.WAV	N	S
BLOCK40/SES4027/5264027009_h_00.WAV	N	S
BLOCK40/SES4027/5264027011_h_00.WAV	N	S
BLOCK40/SES4027/5264027016_h_00.WAV	N	S
BLOCK40/SES4027/5264027017_h_00.WAV	N	S
BLOCK40/SES4027/5264027018_h_00.WAV	N	S
BLOCK40/SES4027/5264027021_h_00.WAV	N	S
BLOCK40/SES4027/5264027022_h_00.WAV	N	S
BLOCK40/SES4027/5264027025_h_00.WAV	N	S
BLOCK40/SES4027/5264027027_h_00.WAV	N	S
BLOCK40/SES4027/5264027028_h_00.WAV	N	S
BLOCK40/SES4027/5264027033_h_00.WAV	N	S
BLOCK40/SES4027/5264027035_h_00.WAV	N	S
BLOCK40/SES4027/5264027037_h_00.WAV	N	S
BLOCK40/SES4027/5264027039_h_00.WAV	N	S
BLOCK40/SES4027/5264027040_h_00.WAV	N	S
BLOCK40/SES4027/5264027043_h_00.WAV	N	S
BLOCK40/SES4027/5264027044_h_00.WAV	N	S
BLOCK40/SES4027/5264027045_h_00.WAV	N	S
BLOCK40/SES4027/5264027047_h_00.WAV	N	S
BLOCK40/SES4027/5264027052_h_00.WAV	N	S
BLOCK40/SES4027/5264027053_h_00.WAV	N	S
BLOCK40/SES4027/5264027054_h_00.WAV	N	S
BLOCK40/SES4027/5264027056_h_00.WAV	N	S
BLOCK40/SES4027/5264027057_h_00.WAV	N	S
BLOCK40/SES4027/5264027058_h_00.WAV	N	S
BLOCK40/SES4081/5954081002_h_00.WAV	N	S
BLOCK40/SES4081/5954081003_h_00.WAV	N	S
BLOCK40/SES4081/5954081005_h_00.WAV	N	S
BLOCK40/SES4081/5954081006_h_00.WAV	N	S
BLOCK40/SES4081/5954081007_h_00.WAV	N	S
BLOCK40/SES4081/5954081009_h_00.WAV	N	S
BLOCK40/SES4081/5954081011_h_01.WAV	N	S
BLOCK40/SES4081/5954081016_h_00.WAV	N	S
BLOCK40/SES4081/5954081017_h_00.WAV	N	S
BLOCK40/SES4081/5954081018_h_00.WAV	N	S
BLOCK40/SES4081/5954081021_h_00.WAV	N	S
BLOCK40/SES4081/5954081022_h_00.WAV	N	S
BLOCK40/SES4081/5954081025_h_00.WAV	N	S
BLOCK40/SES4081/5954081027_h_00.WAV	N	S
BLOCK40/SES4081/5954081028_h_00.WAV	N	S
BLOCK40/SES4081/5954081033_h_00.WAV	N	S
BLOCK40/SES4081/5954081035_h_00.WAV	N	S
BLOCK40/SES4081/5954081037_h_00.WAV	N	S
BLOCK40/SES4081/5954081039_h_00.WAV	N	S
BLOCK40/SES4081/5954081040_h_00.WAV	N	S
BLOCK40/SES4081/5954081043_h_00.WAV	N	S
BLOCK40/SES4081/5954081044_h_00.WAV	N	S
BLOCK40/SES4081/5954081045_h_00.WAV	N	S
BLOCK40/SES4081/5954081047_h_00.WAV	N	S
BLOCK40/SES4081/5954081052_h_00.WAV	N	S
BLOCK40/SES4081/5954081053_h_00.WAV	N	S
BLOCK40/SES4081/5954081054_h_00.WAV	N	S
BLOCK40/SES4081/5954081056_h_00.WAV	N	S
BLOCK40/SES4081/5954081057_h_00.WAV	N	S
BLOCK40/SES4081/5954081058_h_00.WAV	N	S
BLOCK20/SES2033/0152033002_h_00.WAV	N	S
BLOCK20/SES2033/0152033003_h_00.WAV	N	S
BLOCK20/SES2033/0152033005_h_00.WAV	N	S
BLOCK20/SES2033/0152033006_h_00.WAV	N	S
BLOCK20/SES2033/0152033007_h_00.WAV	N	S
BLOCK20/SES2033/0152033009_h_00.WAV	N	S
BLOCK20/SES2033/0152033011_h_00.WAV	N	S
BLOCK20/SES2033/0152033016_h_00.WAV	N	S
BLOCK20/SES2033/0152033017_h_00.WAV	N	S
BLOCK20/SES2033/0152033018_h_00.WAV	N	S
BLOCK20/SES2033/0152033021_h_00.WAV	N	S
BLOCK20/SES2033/0152033022_h_00.WAV	N	S
BLOCK20/SES2033/0152033025_h_00.WAV	N	S
BLOCK20/SES2033/0152033027_h_00.WAV	N	S
BLOCK20/SES2033/0152033028_h_00.WAV	N	S
BLOCK20/SES2033/0152033033_h_00.WAV	N	S
BLOCK20/SES2033/0152033035_h_00.WAV	N	S
BLOCK20/SES2033/0152033037_h_00.WAV	N	S
BLOCK20/SES2033/0152033039_h_00.WAV	N	S
BLOCK20/SES2033/0152033040_h_00.WAV	N	S
BLOCK20/SES2033/0152033043_h_00.WAV	N	S
BLOCK20/SES2033/0152033044_h_01.WAV	N	S
BLOCK20/SES2033/0152033045_h_00.WAV	N	S
BLOCK20/SES2033/0152033047_h_00.WAV	N	S
BLOCK20/SES2033/0152033052_h_00.WAV	N	S
BLOCK20/SES2033/0152033053_h_00.WAV	N	S
BLOCK20/SES2033/0152033054_h_00.WAV	N	S
BLOCK20/SES2033/0152033056_h_00.WAV	N	S
BLOCK20/SES2033/0152033057_h_00.WAV	N	S
BLOCK20/SES2033/0152033058_h_00.WAV	N	S
BLOCK20/SES2045/0552045002_h_01.WAV	N	S
BLOCK20/SES2045/0552045003_h_00.WAV	N	S
BLOCK20/SES2045/0552045005_h_00.WAV	N	S
BLOCK20/SES2045/0552045006_h_00.WAV	N	S
BLOCK20/SES2045/0552045007_h_00.WAV	N	S
BLOCK20/SES2045/0552045009_h_00.WAV	N	S
BLOCK20/SES2045/0552045011_h_00.WAV	N	S
BLOCK20/SES2045/0552045016_h_00.WAV	N	S
BLOCK20/SES2045/0552045017_h_00.WAV	N	S
BLOCK20/SES2045/0552045018_h_00.WAV	N	S
BLOCK20/SES2045/0552045021_h_00.WAV	N	S
BLOCK20/SES2045/0552045022_h_00.WAV	N	S
BLOCK20/SES2045/0552045025_h_00.WAV	N	S
BLOCK20/SES2045/0552045027_h_00.WAV	N	S
BLOCK20/SES2045/0552045028_h_00.WAV	N	S
BLOCK20/SES2045/0552045033_h_00.WAV	N	S
BLOCK20/SES2045/0552045035_h_00.WAV	N	S
BLOCK20/SES2045/0552045037_h_00.WAV	N	S
BLOCK20/SES2045/0552045039_h_00.WAV	N	S
BLOCK20/SES2045/0552045040_h_00.WAV	N	S
BLOCK20/SES2045/0552045043_h_00.WAV	N	S
BLOCK20/SES2045/0552045044_h_00.WAV	N	S
BLOCK20/SES2045/0552045045_h_00.WAV	N	S
BLOCK20/SES2045/0552045047_h_00.WAV	N	S
BLOCK20/SES2045/0552045052_h_00.WAV	N	S
BLOCK20/SES2045/0552045053_h_00.WAV	N	S
BLOCK20/SES2045/0552045054_h_00.WAV	N	S
BLOCK20/SES2045/0552045056_h_00.WAV	N	S
BLOCK20/SES2045/0552045057_h_00.WAV	N	S
BLOCK20/SES2045/0552045058_h_00.WAV	N	S
BLOCK40/SES4010/5144010002_h_00.WAV	N	S
BLOCK40/SES4010/5144010003_h_00.WAV	N	S
BLOCK40/SES4010/5144010005_h_00.WAV	N	S
BLOCK40/SES4010/5144010006_h_00.WAV	N	S
BLOCK40/SES4010/5144010007_h_00.WAV	N	S
BLOCK40/SES4010/5144010009_h_00.WAV	N	S
BLOCK40/SES4010/5144010011_h_00.WAV	N	S
BLOCK40/SES4010/5144010016_h_00.WAV	N	S
BLOCK40/SES4010/5144010017_h_00.WAV	N	S
BLOCK40/SES4010/5144010018_h_00.WAV	N	S
BLOCK40/SES4010/5144010021_h_00.WAV	N	S
BLOCK40/SES4010/5144010022_h_00.WAV	N	S
BLOCK40/SES4010/5144010025_h_00.WAV	N	S
BLOCK40/SES4010/5144010027_h_00.WAV	N	S
BLOCK40/SES4010/5144010028_h_00.WAV	N	S
BLOCK40/SES4010/5144010033_h_00.WAV	N	S
BLOCK40/SES4010/5144010035_h_00.WAV	N	S
BLOCK40/SES4010/5144010037_h_00.WAV	N	S
BLOCK40/SES4010/5144010039_h_00.WAV	N	S
BLOCK40/SES4010/5144010040_h_00.WAV	N	S
BLOCK40/SES4010/5144010043_h_00.WAV	N	S
BLOCK40/SES4010/5144010044_h_00.WAV	N	S
BLOCK40/SES4010/5144010045_h_00.WAV	N	S
BLOCK40/SES4010/5144010047_h_00.WAV	N	S
BLOCK40/SES4010/5144010052_h_00.WAV	N	S
BLOCK40/SES4010/5144010053_h_00.WAV	N	S
BLOCK40/SES4010/5144010054_h_00.WAV	N	S
BLOCK40/SES4010/5144010056_h_00.WAV	N	S
BLOCK40/SES4010/5144010057_h_00.WAV	N	S
BLOCK40/SES4010/5144010058_h_00.WAV	N	S
BLOCK20/SES2013/0252013002_h_00.WAV	N	S
BLOCK20/SES2013/0252013003_h_00.WAV	N	S
BLOCK20/SES2013/0252013005_h_00.WAV	N	S
BLOCK20/SES2013/0252013006_h_00.WAV	N	S
BLOCK20/SES2013/0252013007_h_00.WAV	N	S
BLOCK20/SES2013/0252013009_h_00.WAV	N	S
BLOCK20/SES2013/0252013011_h_00.WAV	N	S
BLOCK20/SES2013/0252013016_h_00.WAV	N	S
BLOCK20/SES2013/0252013017_h_00.WAV	N	S
BLOCK20/SES2013/0252013018_h_00.WAV	N	S
BLOCK20/SES2013/0252013021_h_00.WAV	N	S
BLOCK20/SES2013/0252013022_h_00.WAV	N	S
BLOCK20/SES2013/0252013025_h_00.WAV	N	S
BLOCK20/SES2013/0252013027_h_00.WAV	N	S
BLOCK20/SES2013/0252013028_h_00.WAV	N	S
BLOCK20/SES2013/0252013033_h_00.WAV	N	S
BLOCK20/SES2013/0252013035_h_00.WAV	N	S
BLOCK20/SES2013/0252013037_h_00.WAV	N	S
BLOCK20/SES2013/0252013039_h_00.WAV	N	S
BLOCK20/SES2013/0252013040_h_00.WAV	N	S
BLOCK20/SES2013/0252013043_h_00.WAV	N	S
BLOCK20/SES2013/0252013044_h_00.WAV	N	S
BLOCK20/SES2013/0252013045_h_00.WAV	N	S
BLOCK20/SES2013/0252013047_h_00.WAV	N	S
BLOCK20/SES2013/0252013052_h_00.WAV	N	S
BLOCK20/SES2013/0252013053_h_00.WAV	N	S
BLOCK20/SES2013/0252013054_h_00.WAV	N	S
BLOCK20/SES2013/0252013056_h_00.WAV	N	S
BLOCK20/SES2013/0252013057_h_00.WAV	N	S
BLOCK20/SES2013/0252013058_h_00.WAV	N	S
BLOCK40/SES4054/5774054002_h_00.WAV	N	S
BLOCK40/SES4054/5774054003_h_00.WAV	N	S
BLOCK40/SES4054/5774054005_h_00.WAV	N	S
BLOCK40/SES4054/5774054006_h_00.WAV	N	S
BLOCK40/SES4054/5774054007_h_00.WAV	N	S
BLOCK40/SES4054/5774054009_h_00.WAV	N	S
BLOCK40/SES4054/5774054011_h_00.WAV	N	S
BLOCK40/SES4054/5774054016_h_00.WAV	N	S
BLOCK40/SES4054/5774054017_h_00.WAV	N	S
BLOCK40/SES4054/5774054018_h_00.WAV	N	S
BLOCK40/SES4054/5774054021_h_00.WAV	N	S
BLOCK40/SES4054/5774054022_h_00.WAV	N	S
BLOCK40/SES4054/5774054025_h_00.WAV	N	S
BLOCK40/SES4054/5774054027_h_00.WAV	N	S
BLOCK40/SES4054/5774054028_h_00.WAV	N	S
BLOCK40/SES4054/5774054033_h_00.WAV	N	S
BLOCK40/SES4054/5774054035_h_00.WAV	N	S
BLOCK40/SES4054/5774054037_h_00.WAV	N	S
BLOCK40/SES4054/5774054039_h_00.WAV	N	S
BLOCK40/SES4054/5774054040_h_00.WAV	N	S
BLOCK40/SES4054/5774054043_h_00.WAV	N	S
BLOCK40/SES4054/5774054044_h_00.WAV	N	S
BLOCK40/SES4054/5774054045_h_00.WAV	N	S
BLOCK40/SES4054/5774054047_h_00.WAV	N	S
BLOCK40/SES4054/5774054052_h_00.WAV	N	S
BLOCK40/SES4054/5774054053_h_00.WAV	N	S
BLOCK40/SES4054/5774054054_h_00.WAV	N	S
BLOCK40/SES4054/5774054056_h_00.WAV	N	S
BLOCK40/SES4054/5774054057_h_00.WAV	N	S
BLOCK40/SES4054/5774054058_h_00.WAV	N	S
BLOCK40/SES4004/5084004002_h_00.WAV	N	S
BLOCK40/SES4004/5084004003_h_00.WAV	N	S
BLOCK40/SES4004/5084004005_h_00.WAV	N	S
BLOCK40/SES4004/5084004006_h_00.WAV	N	S
BLOCK40/SES4004/5084004007_h_00.WAV	N	S
BLOCK40/SES4004/5084004009_h_00.WAV	N	S
BLOCK40/SES4004/5084004011_h_00.WAV	N	S
BLOCK40/SES4004/5084004016_h_00.WAV	N	S
BLOCK40/SES4004/5084004017_h_00.WAV	N	S
BLOCK40/SES4004/5084004018_h_00.WAV	N	S
BLOCK40/SES4004/5084004021_h_00.WAV	N	S
BLOCK40/SES4004/5084004022_h_00.WAV	N	S
BLOCK40/SES4004/5084004025_h_00.WAV	N	S
BLOCK40/SES4004/5084004027_h_00.WAV	N	S
BLOCK40/SES4004/5084004028_h_00.WAV	N	S
BLOCK40/SES4004/5084004033_h_00.WAV	N	S
BLOCK40/SES4004/5084004035_h_00.WAV	N	S
BLOCK40/SES4004/5084004037_h_00.WAV	N	S
BLOCK40/SES4004/5084004039_h_01.WAV	N	S
BLOCK40/SES4004/5084004040_h_00.WAV	N	S
BLOCK40/SES4004/5084004043_h_00.WAV	N	S
BLOCK40/SES4004/5084004044_h_00.WAV	N	S
BLOCK40/SES4004/5084004045_h_00.WAV	N	S
BLOCK40/SES4004/5084004047_h_00.WAV	N	S
BLOCK40/SES4004/5084004052_h_00.WAV	N	S
BLOCK40/SES4004/5084004053_h_00.WAV	N	S
BLOCK40/SES4004/5084004054_h_00.WAV	N	S
BLOCK40/SES4004/5084004056_h_00.WAV	N	S
BLOCK40/SES4004/5084004057_h_00.WAV	N	S
BLOCK40/SES4004/5084004058_h_00.WAV	N	S
BLOCK40/SES4012/5114012002_h_00.WAV	N	S
BLOCK40/SES4012/5114012003_h_00.WAV	N	S
BLOCK40/SES4012/5114012005_h_00.WAV	N	S
BLOCK40/SES4012/5114012006_h_00.WAV	N	S
BLOCK40/SES4012/5114012007_h_00.WAV	N	S
BLOCK40/SES4012/5114012009_h_00.WAV	N	S
BLOCK40/SES4012/5114012011_h_00.WAV	N	S
BLOCK40/SES4012/5114012016_h_00.WAV	N	S
BLOCK40/SES4012/5114012017_h_00.WAV	N	S
BLOCK40/SES4012/5114012018_h_00.WAV	N	S
BLOCK40/SES4012/5114012021_h_00.WAV	N	S
BLOCK40/SES4012/5114012022_h_00.WAV	N	S
BLOCK40/SES4012/5114012025_h_00.WAV	N	S
BLOCK40/SES4012/5114012027_h_00.WAV	N	S
BLOCK40/SES4012/5114012028_h_00.WAV	N	S
BLOCK40/SES4012/5114012033_h_00.WAV	N	S
BLOCK40/SES4012/5114012035_h_00.WAV	N	S
BLOCK40/SES4012/5114012037_h_00.WAV	N	S
BLOCK40/SES4012/5114012039_h_00.WAV	N	S
BLOCK40/SES4012/5114012040_h_00.WAV	N	S
BLOCK40/SES4012/5114012043_h_00.WAV	N	S
BLOCK40/SES4012/5114012044_h_00.WAV	N	S
BLOCK40/SES4012/5114012045_h_00.WAV	N	S
BLOCK40/SES4012/5114012047_h_00.WAV	N	S
BLOCK40/SES4012/5114012052_h_00.WAV	N	S
BLOCK40/SES4012/5114012053_h_00.WAV	N	S
BLOCK40/SES4012/5114012054_h_00.WAV	N	S
BLOCK40/SES4012/5114012056_h_00.WAV	N	S
BLOCK40/SES4012/5114012057_h_00.WAV	N	S
BLOCK40/SES4012/5114012058_h_00.WAV	N	S
BLOCK20/SES2064/0702064002_h_00.WAV	N	S
BLOCK20/SES2064/0702064003_h_00.WAV	N	S
BLOCK20/SES2064/0702064005_h_00.WAV	N	S
BLOCK20/SES2064/0702064006_h_00.WAV	N	S
BLOCK20/SES2064/0702064007_h_00.WAV	N	S
BLOCK20/SES2064/0702064009_h_00.WAV	N	S
BLOCK20/SES2064/0702064011_h_00.WAV	N	S
BLOCK20/SES2064/0702064016_h_00.WAV	N	S
BLOCK20/SES2064/0702064017_h_00.WAV	N	S
BLOCK20/SES2064/0702064018_h_00.WAV	N	S
BLOCK20/SES2064/0702064021_h_00.WAV	N	S
BLOCK20/SES2064/0702064022_h_00.WAV	N	S
BLOCK20/SES2064/0702064025_h_00.WAV	N	S
BLOCK20/SES2064/0702064027_h_00.WAV	N	S
BLOCK20/SES2064/0702064028_h_00.WAV	N	S
BLOCK20/SES2064/0702064033_h_00.WAV	N	S
BLOCK20/SES2064/0702064035_h_00.WAV	N	S
BLOCK20/SES2064/0702064037_h_00.WAV	N	S
BLOCK20/SES2064/0702064039_h_00.WAV	N	S
BLOCK20/SES2064/0702064040_h_00.WAV	N	S
BLOCK20/SES2064/0702064043_h_00.WAV	N	S
BLOCK20/SES2064/0702064044_h_00.WAV	N	S
BLOCK20/SES2064/0702064045_h_00.WAV	N	S
BLOCK20/SES2064/0702064047_h_00.WAV	N	S
BLOCK20/SES2064/0702064052_h_00.WAV	N	S
BLOCK20/SES2064/0702064053_h_00.WAV	N	S
BLOCK20/SES2064/0702064054_h_00.WAV	N	S
BLOCK20/SES2064/0702064056_h_00.WAV	N	S
BLOCK20/SES2064/0702064057_h_00.WAV	N	S
BLOCK20/SES2064/0702064058_h_00.WAV	N	S
BLOCK20/SES2069/0732069002_h_00.WAV	N	S
BLOCK20/SES2069/0732069003_h_00.WAV	N	S
BLOCK20/SES2069/0732069005_h_00.WAV	N	S
BLOCK20/SES2069/0732069006_h_00.WAV	N	S
BLOCK20/SES2069/0732069007_h_00.WAV	N	S
BLOCK20/SES2069/0732069009_h_00.WAV	N	S
BLOCK20/SES2069/0732069011_h_00.WAV	N	S
BLOCK20/SES2069/0732069016_h_00.WAV	N	S
BLOCK20/SES2069/0732069017_h_00.WAV	N	S
BLOCK20/SES2069/0732069018_h_00.WAV	N	S
BLOCK20/SES2069/0732069021_h_00.WAV	N	S
BLOCK20/SES2069/0732069022_h_00.WAV	N	S
BLOCK20/SES2069/0732069025_h_00.WAV	N	S
BLOCK20/SES2069/0732069027_h_00.WAV	N	S
BLOCK20/SES2069/0732069028_h_00.WAV	N	S
BLOCK20/SES2069/0732069033_h_00.WAV	N	S
BLOCK20/SES2069/0732069035_h_00.WAV	N	S
BLOCK20/SES2069/0732069037_h_00.WAV	N	S
BLOCK20/SES2069/0732069039_h_00.WAV	N	S
BLOCK20/SES2069/0732069040_h_00.WAV	N	S
BLOCK20/SES2069/0732069043_h_00.WAV	N	S
BLOCK20/SES2069/0732069044_h_00.WAV	N	S
BLOCK20/SES2069/0732069045_h_00.WAV	N	S
BLOCK20/SES2069/0732069047_h_00.WAV	N	S
BLOCK20/SES2069/0732069052_h_00.WAV	N	S
BLOCK20/SES2069/0732069053_h_00.WAV	N	S
BLOCK20/SES2069/0732069054_h_00.WAV	N	S
BLOCK20/SES2069/0732069056_h_00.WAV	N	S
BLOCK20/SES2069/0732069057_h_00.WAV	N	S
BLOCK20/SES2069/0732069058_h_00.WAV	N	S
BLOCK40/SES4014/5224014002_h_00.WAV	N	S
BLOCK40/SES4014/5224014003_h_00.WAV	N	S
BLOCK40/SES4014/5224014005_h_00.WAV	N	S
BLOCK40/SES4014/5224014006_h_00.WAV	N	S
BLOCK40/SES4014/5224014007_h_00.WAV	N	S
BLOCK40/SES4014/5224014009_h_00.WAV	N	S
BLOCK40/SES4014/5224014011_h_00.WAV	N	S
BLOCK40/SES4014/5224014016_h_00.WAV	N	S
BLOCK40/SES4014/5224014017_h_00.WAV	N	S
BLOCK40/SES4014/5224014018_h_00.WAV	N	S
BLOCK40/SES4014/5224014021_h_00.WAV	N	S
BLOCK40/SES4014/5224014022_h_00.WAV	N	S
BLOCK40/SES4014/5224014025_h_00.WAV	N	S
BLOCK40/SES4014/5224014027_h_00.WAV	N	S
BLOCK40/SES4014/5224014028_h_00.WAV	N	S
BLOCK40/SES4014/5224014033_h_00.WAV	N	S
BLOCK40/SES4014/5224014035_h_00.WAV	N	S
BLOCK40/SES4014/5224014037_h_00.WAV	N	S
BLOCK40/SES4014/5224014039_h_00.WAV	N	S
BLOCK40/SES4014/5224014040_h_00.WAV	N	S
BLOCK40/SES4014/5224014043_h_00.WAV	N	S
BLOCK40/SES4014/5224014044_h_00.WAV	N	S
BLOCK40/SES4014/5224014045_h_00.WAV	N	S
BLOCK40/SES4014/5224014047_h_00.WAV	N	S
BLOCK40/SES4014/5224014052_h_00.WAV	N	S
BLOCK40/SES4014/5224014053_h_00.WAV	N	S
BLOCK40/SES4014/5224014054_h_00.WAV	N	S
BLOCK40/SES4014/5224014056_h_00.WAV	N	S
BLOCK40/SES4014/5224014057_h_00.WAV	N	S
BLOCK40/SES4014/5224014058_h_00.WAV	N	S
BLOCK20/SES2040/0502040002_h_00.WAV	N	S
BLOCK20/SES2040/0502040003_h_00.WAV	N	S
BLOCK20/SES2040/0502040005_h_00.WAV	N	S
BLOCK20/SES2040/0502040006_h_00.WAV	N	S
BLOCK20/SES2040/0502040007_h_00.WAV	N	S
BLOCK20/SES2040/0502040009_h_00.WAV	N	S
BLOCK20/SES2040/0502040011_h_00.WAV	N	S
BLOCK20/SES2040/0502040016_h_00.WAV	N	S
BLOCK20/SES2040/0502040017_h_00.WAV	N	S
BLOCK20/SES2040/0502040018_h_00.WAV	N	S
BLOCK20/SES2040/0502040021_h_00.WAV	N	S
BLOCK20/SES2040/0502040022_h_00.WAV	N	S
BLOCK20/SES2040/0502040025_h_00.WAV	N	S
BLOCK20/SES2040/0502040027_h_00.WAV	N	S
BLOCK20/SES2040/0502040028_h_00.WAV	N	S
BLOCK20/SES2040/0502040033_h_00.WAV	N	S
BLOCK20/SES2040/0502040035_h_00.WAV	N	S
BLOCK20/SES2040/0502040037_h_00.WAV	N	S
BLOCK20/SES2040/0502040039_h_00.WAV	N	S
BLOCK20/SES2040/0502040040_h_00.WAV	N	S
BLOCK20/SES2040/0502040043_h_00.WAV	N	S
BLOCK20/SES2040/0502040044_h_00.WAV	N	S
BLOCK20/SES2040/0502040045_h_00.WAV	N	S
BLOCK20/SES2040/0502040047_h_00.WAV	N	S
BLOCK20/SES2040/0502040052_h_00.WAV	N	S
BLOCK20/SES2040/0502040053_h_00.WAV	N	S
BLOCK20/SES2040/0502040054_h_00.WAV	N	S
BLOCK20/SES2040/0502040056_h_00.WAV	N	S
BLOCK20/SES2040/0502040057_h_00.WAV	N	S
BLOCK20/SES2040/0502040058_h_00.WAV	N	S
BLOCK20/SES2072/0892072002_h_00.WAV	N	S
BLOCK20/SES2072/0892072003_h_00.WAV	N	S
BLOCK20/SES2072/0892072005_h_00.WAV	N	S
BLOCK20/SES2072/0892072006_h_00.WAV	N	S
BLOCK20/SES2072/0892072007_h_00.WAV	N	S
BLOCK20/SES2072/0892072009_h_00.WAV	N	S
BLOCK20/SES2072/0892072011_h_00.WAV	N	S
BLOCK20/SES2072/0892072016_h_00.WAV	N	S
BLOCK20/SES2072/0892072017_h_00.WAV	N	S
BLOCK20/SES2072/0892072018_h_00.WAV	N	S
BLOCK20/SES2072/0892072021_h_00.WAV	N	S
BLOCK20/SES2072/0892072022_h_00.WAV	N	S
BLOCK20/SES2072/0892072025_h_00.WAV	N	S
BLOCK20/SES2072/0892072027_h_00.WAV	N	S
BLOCK20/SES2072/0892072028_h_00.WAV	N	S
BLOCK20/SES2072/0892072033_h_00.WAV	N	S
BLOCK20/SES2072/0892072035_h_00.WAV	N	S
BLOCK20/SES2072/0892072037_h_00.WAV	N	S
BLOCK20/SES2072/0892072039_h_00.WAV	N	S
BLOCK20/SES2072/0892072040_h_00.WAV	N	S
BLOCK20/SES2072/0892072043_h_00.WAV	N	S
BLOCK20/SES2072/0892072044_h_00.WAV	N	S
BLOCK20/SES2072/0892072045_h_00.WAV	N	S
BLOCK20/SES2072/0892072047_h_00.WAV	N	S
BLOCK20/SES2072/0892072052_h_00.WAV	N	S
BLOCK20/SES2072/0892072053_h_00.WAV	N	S
BLOCK20/SES2072/0892072054_h_00.WAV	N	S
BLOCK20/SES2072/0892072056_h_00.WAV	N	S
BLOCK20/SES2072/0892072057_h_00.WAV	N	S
BLOCK20/SES2072/0892072058_h_00.WAV	N	S
BLOCK40/SES4041/5634041002_h_00.WAV	N	S
BLOCK40/SES4041/5634041003_h_00.WAV	N	S
BLOCK40/SES4041/5634041005_h_00.WAV	N	S
BLOCK40/SES4041/5634041006_h_00.WAV	N	S
BLOCK40/SES4041/5634041007_h_00.WAV	N	S
BLOCK40/SES4041/5634041009_h_00.WAV	N	S
BLOCK40/SES4041/5634041011_h_00.WAV	N	S
BLOCK40/SES4041/5634041016_h_00.WAV	N	S
BLOCK40/SES4041/5634041017_h_00.WAV	N	S
BLOCK40/SES4041/5634041018_h_00.WAV	N	S
BLOCK40/SES4041/5634041021_h_00.WAV	N	S
BLOCK40/SES4041/5634041022_h_00.WAV	N	S
BLOCK40/SES4041/5634041025_h_00.WAV	N	S
BLOCK40/SES4041/5634041027_h_00.WAV	N	S
BLOCK40/SES4041/5634041028_h_00.WAV	N	S
BLOCK40/SES4041/5634041033_h_00.WAV	N	S
BLOCK40/SES4041/5634041035_h_00.WAV	N	S
BLOCK40/SES4041/5634041037_h_00.WAV	N	S
BLOCK40/SES4041/5634041039_h_00.WAV	N	S
BLOCK40/SES4041/5634041040_h_00.WAV	N	S
BLOCK40/SES4041/5634041043_h_00.WAV	N	S
BLOCK40/SES4041/5634041044_h_00.WAV	N	S
BLOCK40/SES4041/5634041045_h_00.WAV	N	S
BLOCK40/SES4041/5634041047_h_00.WAV	N	S
BLOCK40/SES4041/5634041052_h_00.WAV	N	S
BLOCK40/SES4041/5634041053_h_00.WAV	N	S
BLOCK40/SES4041/5634041054_h_00.WAV	N	S
BLOCK40/SES4041/5634041056_h_00.WAV	N	S
BLOCK40/SES4041/5634041057_h_00.WAV	N	S
BLOCK40/SES4041/5634041058_h_00.WAV	N	S
BLOCK20/SES2060/0772060002_h_00.WAV	N	S
BLOCK20/SES2060/0772060003_h_00.WAV	N	S
BLOCK20/SES2060/0772060005_h_00.WAV	N	S
BLOCK20/SES2060/0772060006_h_00.WAV	N	S
BLOCK20/SES2060/0772060007_h_00.WAV	N	S
BLOCK20/SES2060/0772060009_h_00.WAV	N	S
BLOCK20/SES2060/0772060011_h_00.WAV	N	S
BLOCK20/SES2060/0772060016_h_00.WAV	N	S
BLOCK20/SES2060/0772060017_h_00.WAV	N	S
BLOCK20/SES2060/0772060018_h_00.WAV	N	S
BLOCK20/SES2060/0772060021_h_00.WAV	N	S
BLOCK20/SES2060/0772060022_h_00.WAV	N	S
BLOCK20/SES2060/0772060025_h_00.WAV	N	S
BLOCK20/SES2060/0772060027_h_00.WAV	N	S
BLOCK20/SES2060/0772060028_h_00.WAV	N	S
BLOCK20/SES2060/0772060033_h_00.WAV	N	S
BLOCK20/SES2060/0772060035_h_00.WAV	N	S
BLOCK20/SES2060/0772060037_h_00.WAV	N	S
BLOCK20/SES2060/0772060039_h_00.WAV	N	S
BLOCK20/SES2060/0772060040_h_00.WAV	N	S
BLOCK20/SES2060/0772060043_h_00.WAV	N	S
BLOCK20/SES2060/0772060044_h_00.WAV	N	S
BLOCK20/SES2060/0772060045_h_00.WAV	N	S
BLOCK20/SES2060/0772060047_h_00.WAV	N	S
BLOCK20/SES2060/0772060052_h_00.WAV	N	S
BLOCK20/SES2060/0772060053_h_00.WAV	N	S
BLOCK20/SES2060/0772060054_h_00.WAV	N	S
BLOCK20/SES2060/0772060056_h_00.WAV	N	S
BLOCK20/SES2060/0772060057_h_00.WAV	N	S
BLOCK20/SES2060/0772060058_h_00.WAV	N	S
BLOCK40/SES4067/5684067002_h_00.WAV	N	S
BLOCK40/SES4067/5684067003_h_00.WAV	N	S
BLOCK40/SES4067/5684067005_h_00.WAV	N	S
BLOCK40/SES4067/5684067006_h_00.WAV	N	S
BLOCK40/SES4067/5684067007_h_00.WAV	N	S
BLOCK40/SES4067/5684067009_h_00.WAV	N	S
BLOCK40/SES4067/5684067011_h_00.WAV	N	S
BLOCK40/SES4067/5684067016_h_00.WAV	N	S
BLOCK40/SES4067/5684067017_h_00.WAV	N	S
BLOCK40/SES4067/5684067018_h_00.WAV	N	S
BLOCK40/SES4067/5684067021_h_00.WAV	N	S
BLOCK40/SES4067/5684067022_h_00.WAV	N	S
BLOCK40/SES4067/5684067025_h_00.WAV	N	S
BLOCK40/SES4067/5684067027_h_00.WAV	N	S
BLOCK40/SES4067/5684067028_h_00.WAV	N	S
BLOCK40/SES4067/5684067033_h_00.WAV	N	S
BLOCK40/SES4067/5684067035_h_00.WAV	N	S
BLOCK40/SES4067/5684067037_h_00.WAV	N	S
BLOCK40/SES4067/5684067039_h_00.WAV	N	S
BLOCK40/SES4067/5684067040_h_00.WAV	N	S
BLOCK40/SES4067/5684067043_h_00.WAV	N	S
BLOCK40/SES4067/5684067044_h_00.WAV	N	S
BLOCK40/SES4067/5684067045_h_00.WAV	N	S
BLOCK40/SES4067/5684067047_h_00.WAV	N	S
BLOCK40/SES4067/5684067052_h_00.WAV	N	S
BLOCK40/SES4067/5684067053_h_00.WAV	N	S
BLOCK40/SES4067/5684067054_h_00.WAV	N	S
BLOCK40/SES4067/5684067056_h_00.WAV	N	S
BLOCK40/SES4067/5684067057_h_00.WAV	N	S
BLOCK40/SES4067/5684067058_h_00.WAV	N	S
BLOCK20/SES2030/0322030002_h_01.WAV	N	S
BLOCK20/SES2030/0322030003_h_00.WAV	N	S
BLOCK20/SES2030/0322030005_h_00.WAV	N	S
BLOCK20/SES2030/0322030006_h_00.WAV	N	S
BLOCK20/SES2030/0322030007_h_00.WAV	N	S
BLOCK20/SES2030/0322030009_h_00.WAV	N	S
BLOCK20/SES2030/0322030011_h_00.WAV	N	S
BLOCK20/SES2030/0322030016_h_00.WAV	N	S
BLOCK20/SES2030/0322030017_h_00.WAV	N	S
BLOCK20/SES2030/0322030018_h_00.WAV	N	S
BLOCK20/SES2030/0322030021_h_00.WAV	N	S
BLOCK20/SES2030/0322030022_h_00.WAV	N	S
BLOCK20/SES2030/0322030025_h_00.WAV	N	S
BLOCK20/SES2030/0322030027_h_00.WAV	N	S
BLOCK20/SES2030/0322030028_h_00.WAV	N	S
BLOCK20/SES2030/0322030033_h_00.WAV	N	S
BLOCK20/SES2030/0322030035_h_00.WAV	N	S
BLOCK20/SES2030/0322030037_h_00.WAV	N	S
BLOCK20/SES2030/0322030039_h_00.WAV	N	S
BLOCK20/SES2030/0322030040_h_00.WAV	N	S
BLOCK20/SES2030/0322030043_h_00.WAV	N	S
BLOCK20/SES2030/0322030044_h_00.WAV	N	S
BLOCK20/SES2030/0322030045_h_01.WAV	N	S
BLOCK20/SES2030/0322030047_h_00.WAV	N	S
BLOCK20/SES2030/0322030052_h_00.WAV	N	S
BLOCK20/SES2030/0322030053_h_00.WAV	N	S
BLOCK20/SES2030/0322030054_h_00.WAV	N	S
BLOCK20/SES2030/0322030056_h_00.WAV	N	S
BLOCK20/SES2030/0322030057_h_00.WAV	N	S
BLOCK20/SES2030/0322030058_h_00.WAV	N	S
BLOCK40/SES4009/5004009002_h_00.WAV	N	S
BLOCK40/SES4009/5004009003_h_00.WAV	N	S
BLOCK40/SES4009/5004009005_h_00.WAV	N	S
BLOCK40/SES4009/5004009006_h_00.WAV	N	S
BLOCK40/SES4009/5004009007_h_00.WAV	N	S
BLOCK40/SES4009/5004009009_h_00.WAV	N	S
BLOCK40/SES4009/5004009011_h_00.WAV	N	S
BLOCK40/SES4009/5004009016_h_00.WAV	N	S
BLOCK40/SES4009/5004009017_h_00.WAV	N	S
BLOCK40/SES4009/5004009018_h_00.WAV	N	S
BLOCK40/SES4009/5004009021_h_00.WAV	N	S
BLOCK40/SES4009/5004009022_h_00.WAV	N	S
BLOCK40/SES4009/5004009025_h_00.WAV	N	S
BLOCK40/SES4009/5004009027_h_00.WAV	N	S
BLOCK40/SES4009/5004009028_h_00.WAV	N	S
BLOCK40/SES4009/5004009033_h_00.WAV	N	S
BLOCK40/SES4009/5004009035_h_00.WAV	N	S
BLOCK40/SES4009/5004009037_h_00.WAV	N	S
BLOCK40/SES4009/5004009039_h_00.WAV	N	S
BLOCK40/SES4009/5004009040_h_00.WAV	N	S
BLOCK40/SES4009/5004009043_h_00.WAV	N	S
BLOCK40/SES4009/5004009044_h_00.WAV	N	S
BLOCK40/SES4009/5004009045_h_00.WAV	N	S
BLOCK40/SES4009/5004009047_h_00.WAV	N	S
BLOCK40/SES4009/5004009052_h_00.WAV	N	S
BLOCK40/SES4009/5004009053_h_00.WAV	N	S
BLOCK40/SES4009/5004009054_h_00.WAV	N	S
BLOCK40/SES4009/5004009056_h_00.WAV	N	S
BLOCK40/SES4009/5004009057_h_00.WAV	N	S
BLOCK40/SES4009/5004009058_h_00.WAV	N	S
BLOCK40/SES4070/5844070002_h_00.WAV	N	S
BLOCK40/SES4070/5844070003_h_00.WAV	N	S
BLOCK40/SES4070/5844070005_h_00.WAV	N	S
BLOCK40/SES4070/5844070006_h_00.WAV	N	S
BLOCK40/SES4070/5844070007_h_00.WAV	N	S
BLOCK40/SES4070/5844070009_h_00.WAV	N	S
BLOCK40/SES4070/5844070011_h_00.WAV	N	S
BLOCK40/SES4070/5844070016_h_00.WAV	N	S
BLOCK40/SES4070/5844070017_h_00.WAV	N	S
BLOCK40/SES4070/5844070018_h_00.WAV	N	S
BLOCK40/SES4070/5844070021_h_00.WAV	N	S
BLOCK40/SES4070/5844070022_h_00.WAV	N	S
BLOCK40/SES4070/5844070025_h_00.WAV	N	S
BLOCK40/SES4070/5844070027_h_00.WAV	N	S
BLOCK40/SES4070/5844070028_h_00.WAV	N	S
BLOCK40/SES4070/5844070033_h_00.WAV	N	S
BLOCK40/SES4070/5844070035_h_00.WAV	N	S
BLOCK40/SES4070/5844070037_h_00.WAV	N	S
BLOCK40/SES4070/5844070039_h_00.WAV	N	S
BLOCK40/SES4070/5844070040_h_00.WAV	N	S
BLOCK40/SES4070/5844070043_h_00.WAV	N	S
BLOCK40/SES4070/5844070044_h_00.WAV	N	S
BLOCK40/SES4070/5844070045_h_00.WAV	N	S
BLOCK40/SES4070/5844070047_h_00.WAV	N	S
BLOCK40/SES4070/5844070052_h_00.WAV	N	S
BLOCK40/SES4070/5844070053_h_00.WAV	N	S
BLOCK40/SES4070/5844070054_h_00.WAV	N	S
BLOCK40/SES4070/5844070056_h_00.WAV	N	S
BLOCK40/SES4070/5844070057_h_00.WAV	N	S
BLOCK40/SES4070/5844070058_h_00.WAV	N	S
BLOCK20/SES2019/0342019002_h_01.WAV	N	S
BLOCK20/SES2019/0342019003_h_01.WAV	N	S
BLOCK20/SES2019/0342019005_h_00.WAV	N	S
BLOCK20/SES2019/0342019006_h_00.WAV	N	S
BLOCK20/SES2019/0342019007_h_00.WAV	N	S
BLOCK20/SES2019/0342019009_h_00.WAV	N	S
BLOCK20/SES2019/0342019011_h_00.WAV	N	S
BLOCK20/SES2019/0342019016_h_00.WAV	N	S
BLOCK20/SES2019/0342019017_h_00.WAV	N	S
BLOCK20/SES2019/0342019018_h_00.WAV	N	S
BLOCK20/SES2019/0342019021_h_00.WAV	N	S
BLOCK20/SES2019/0342019022_h_00.WAV	N	S
BLOCK20/SES2019/0342019025_h_00.WAV	N	S
BLOCK20/SES2019/0342019027_h_00.WAV	N	S
BLOCK20/SES2019/0342019028_h_00.WAV	N	S
BLOCK20/SES2019/0342019033_h_00.WAV	N	S
BLOCK20/SES2019/0342019035_h_00.WAV	N	S
BLOCK20/SES2019/0342019037_h_00.WAV	N	S
BLOCK20/SES2019/0342019039_h_00.WAV	N	S
BLOCK20/SES2019/0342019040_h_00.WAV	N	S
BLOCK20/SES2019/0342019043_h_00.WAV	N	S
BLOCK20/SES2019/0342019044_h_00.WAV	N	S
BLOCK20/SES2019/0342019045_h_00.WAV	N	S
BLOCK20/SES2019/0342019047_h_00.WAV	N	S
BLOCK20/SES2019/0342019052_h_00.WAV	N	S
BLOCK20/SES2019/0342019053_h_00.WAV	N	S
BLOCK20/SES2019/0342019054_h_00.WAV	N	S
BLOCK20/SES2019/0342019056_h_00.WAV	N	S
BLOCK20/SES2019/0342019057_h_00.WAV	N	S
BLOCK20/SES2019/0342019058_h_00.WAV	N	S
BLOCK20/SES2050/0652050002_h_00.WAV	N	S
BLOCK20/SES2050/0652050003_h_00.WAV	N	S
BLOCK20/SES2050/0652050005_h_00.WAV	N	S
BLOCK20/SES2050/0652050006_h_00.WAV	N	S
BLOCK20/SES2050/0652050007_h_00.WAV	N	S
BLOCK20/SES2050/0652050009_h_00.WAV	N	S
BLOCK20/SES2050/0652050011_h_00.WAV	N	S
BLOCK20/SES2050/0652050016_h_00.WAV	N	S
BLOCK20/SES2050/0652050017_h_00.WAV	N	S
BLOCK20/SES2050/0652050018_h_00.WAV	N	S
BLOCK20/SES2050/0652050021_h_00.WAV	N	S
BLOCK20/SES2050/0652050022_h_00.WAV	N	S
BLOCK20/SES2050/0652050025_h_00.WAV	N	S
BLOCK20/SES2050/0652050027_h_00.WAV	N	S
BLOCK20/SES2050/0652050028_h_00.WAV	N	S
BLOCK20/SES2050/0652050033_h_00.WAV	N	S
BLOCK20/SES2050/0652050035_h_00.WAV	N	S
BLOCK20/SES2050/0652050037_h_00.WAV	N	S
BLOCK20/SES2050/0652050039_h_00.WAV	N	S
BLOCK20/SES2050/0652050040_h_00.WAV	N	S
BLOCK20/SES2050/0652050043_h_00.WAV	N	S
BLOCK20/SES2050/0652050044_h_00.WAV	N	S
BLOCK20/SES2050/0652050045_h_00.WAV	N	S
BLOCK20/SES2050/0652050047_h_00.WAV	N	S
BLOCK20/SES2050/0652050052_h_00.WAV	N	S
BLOCK20/SES2050/0652050053_h_00.WAV	N	S
BLOCK20/SES2050/0652050054_h_00.WAV	N	S
BLOCK20/SES2050/0652050056_h_00.WAV	N	S
BLOCK20/SES2050/0652050057_h_00.WAV	N	S
BLOCK20/SES2050/0652050058_h_00.WAV	N	S
BLOCK40/SES4003/5024003002_h_00.WAV	N	S
BLOCK40/SES4003/5024003003_h_00.WAV	N	S
BLOCK40/SES4003/5024003005_h_00.WAV	N	S
BLOCK40/SES4003/5024003006_h_00.WAV	N	S
BLOCK40/SES4003/5024003007_h_00.WAV	N	S
BLOCK40/SES4003/5024003009_h_00.WAV	N	S
BLOCK40/SES4003/5024003011_h_00.WAV	N	S
BLOCK40/SES4003/5024003016_h_00.WAV	N	S
BLOCK40/SES4003/5024003017_h_00.WAV	N	S
BLOCK40/SES4003/5024003018_h_00.WAV	N	S
BLOCK40/SES4003/5024003021_h_00.WAV	N	S
BLOCK40/SES4003/5024003022_h_00.WAV	N	S
BLOCK40/SES4003/5024003025_h_00.WAV	N	S
BLOCK40/SES4003/5024003027_h_00.WAV	N	S
BLOCK40/SES4003/5024003028_h_00.WAV	N	S
BLOCK40/SES4003/5024003033_h_00.WAV	N	S
BLOCK40/SES4003/5024003035_h_00.WAV	N	S
BLOCK40/SES4003/5024003037_h_00.WAV	N	S
BLOCK40/SES4003/5024003039_h_00.WAV	N	S
BLOCK40/SES4003/5024003040_h_00.WAV	N	S
BLOCK40/SES4003/5024003043_h_00.WAV	N	S
BLOCK40/SES4003/5024003044_h_00.WAV	N	S
BLOCK40/SES4003/5024003045_h_00.WAV	N	S
BLOCK40/SES4003/5024003047_h_00.WAV	N	S
BLOCK40/SES4003/5024003052_h_00.WAV	N	S
BLOCK40/SES4003/5024003053_h_00.WAV	N	S
BLOCK40/SES4003/5024003054_h_00.WAV	N	S
BLOCK40/SES4003/5024003056_h_00.WAV	N	S
BLOCK40/SES4003/5024003057_h_00.WAV	N	S
BLOCK40/SES4003/5024003058_h_00.WAV	N	S
BLOCK40/SES4053/5754053002_h_00.WAV	N	S
BLOCK40/SES4053/5754053003_h_00.WAV	N	S
BLOCK40/SES4053/5754053005_h_00.WAV	N	S
BLOCK40/SES4053/5754053006_h_00.WAV	N	S
BLOCK40/SES4053/5754053007_h_00.WAV	N	S
BLOCK40/SES4053/5754053009_h_00.WAV	N	S
BLOCK40/SES4053/5754053011_h_00.WAV	N	S
BLOCK40/SES4053/5754053016_h_00.WAV	N	S
BLOCK40/SES4053/5754053017_h_00.WAV	N	S
BLOCK40/SES4053/5754053018_h_00.WAV	N	S
BLOCK40/SES4053/5754053021_h_00.WAV	N	S
BLOCK40/SES4053/5754053022_h_00.WAV	N	S
BLOCK40/SES4053/5754053025_h_00.WAV	N	S
BLOCK40/SES4053/5754053027_h_00.WAV	N	S
BLOCK40/SES4053/5754053028_h_00.WAV	N	S
BLOCK40/SES4053/5754053033_h_00.WAV	N	S
BLOCK40/SES4053/5754053035_h_00.WAV	N	S
BLOCK40/SES4053/5754053037_h_00.WAV	N	S
BLOCK40/SES4053/5754053039_h_00.WAV	N	S
BLOCK40/SES4053/5754053040_h_00.WAV	N	S
BLOCK40/SES4053/5754053043_h_00.WAV	N	S
BLOCK40/SES4053/5754053044_h_00.WAV	N	S
BLOCK40/SES4053/5754053045_h_00.WAV	N	S
BLOCK40/SES4053/5754053047_h_00.WAV	N	S
BLOCK40/SES4053/5754053052_h_00.WAV	N	S
BLOCK40/SES4053/5754053053_h_00.WAV	N	S
BLOCK40/SES4053/5754053054_h_00.WAV	N	S
BLOCK40/SES4053/5754053056_h_00.WAV	N	S
BLOCK40/SES4053/5754053057_h_00.WAV	N	S
BLOCK40/SES4053/5754053058_h_00.WAV	N	S
BLOCK20/SES2028/0312028002_h_00.WAV	N	S
BLOCK20/SES2028/0312028003_h_00.WAV	N	S
BLOCK20/SES2028/0312028005_h_00.WAV	N	S
BLOCK20/SES2028/0312028006_h_00.WAV	N	S
BLOCK20/SES2028/0312028007_h_00.WAV	N	S
BLOCK20/SES2028/0312028009_h_00.WAV	N	S
BLOCK20/SES2028/0312028011_h_00.WAV	N	S
BLOCK20/SES2028/0312028016_h_00.WAV	N	S
BLOCK20/SES2028/0312028017_h_00.WAV	N	S
BLOCK20/SES2028/0312028018_h_00.WAV	N	S
BLOCK20/SES2028/0312028021_h_00.WAV	N	S
BLOCK20/SES2028/0312028022_h_00.WAV	N	S
BLOCK20/SES2028/0312028025_h_00.WAV	N	S
BLOCK20/SES2028/0312028027_h_00.WAV	N	S
BLOCK20/SES2028/0312028028_h_00.WAV	N	S
BLOCK20/SES2028/0312028033_h_00.WAV	N	S
BLOCK20/SES2028/0312028035_h_00.WAV	N	S
BLOCK20/SES2028/0312028037_h_00.WAV	N	S
BLOCK20/SES2028/0312028039_h_00.WAV	N	S
BLOCK20/SES2028/0312028040_h_00.WAV	N	S
BLOCK20/SES2028/0312028043_h_00.WAV	N	S
BLOCK20/SES2028/0312028044_h_00.WAV	N	S
BLOCK20/SES2028/0312028045_h_00.WAV	N	S
BLOCK20/SES2028/0312028047_h_00.WAV	N	S
BLOCK20/SES2028/0312028052_h_00.WAV	N	S
BLOCK20/SES2028/0312028053_h_00.WAV	N	S
BLOCK20/SES2028/0312028054_h_00.WAV	N	S
BLOCK20/SES2028/0312028056_h_00.WAV	N	S
BLOCK20/SES2028/0312028057_h_00.WAV	N	S
BLOCK20/SES2028/0312028058_h_00.WAV	N	S
BLOCK40/SES4032/5514032002_h_00.WAV	N	S
BLOCK40/SES4032/5514032003_h_00.WAV	N	S
BLOCK40/SES4032/5514032005_h_00.WAV	N	S
BLOCK40/SES4032/5514032006_h_00.WAV	N	S
BLOCK40/SES4032/5514032007_h_00.WAV	N	S
BLOCK40/SES4032/5514032009_h_00.WAV	N	S
BLOCK40/SES4032/5514032011_h_00.WAV	N	S
BLOCK40/SES4032/5514032016_h_00.WAV	N	S
BLOCK40/SES4032/5514032017_h_00.WAV	N	S
BLOCK40/SES4032/5514032018_h_00.WAV	N	S
BLOCK40/SES4032/5514032021_h_00.WAV	N	S
BLOCK40/SES4032/5514032022_h_00.WAV	N	S
BLOCK40/SES4032/5514032025_h_00.WAV	N	S
BLOCK40/SES4032/5514032027_h_00.WAV	N	S
BLOCK40/SES4032/5514032028_h_00.WAV	N	S
BLOCK40/SES4032/5514032033_h_00.WAV	N	S
BLOCK40/SES4032/5514032035_h_00.WAV	N	S
BLOCK40/SES4032/5514032037_h_00.WAV	N	S
BLOCK40/SES4032/5514032039_h_00.WAV	N	S
BLOCK40/SES4032/5514032040_h_00.WAV	N	S
BLOCK40/SES4032/5514032043_h_00.WAV	N	S
BLOCK40/SES4032/5514032044_h_00.WAV	N	S
BLOCK40/SES4032/5514032045_h_00.WAV	N	S
BLOCK40/SES4032/5514032047_h_00.WAV	N	S
BLOCK40/SES4032/5514032052_h_00.WAV	N	S
BLOCK40/SES4032/5514032053_h_00.WAV	N	S
BLOCK40/SES4032/5514032054_h_00.WAV	N	S
BLOCK40/SES4032/5514032056_h_00.WAV	N	S
BLOCK40/SES4032/5514032057_h_00.WAV	N	S
BLOCK40/SES4032/5514032058_h_00.WAV	N	S
BLOCK20/SES2066/0512066002_h_00.WAV	N	S
BLOCK20/SES2066/0512066003_h_00.WAV	N	S
BLOCK20/SES2066/0512066005_h_00.WAV	N	S
BLOCK20/SES2066/0512066006_h_00.WAV	N	S
BLOCK20/SES2066/0512066007_h_00.WAV	N	S
BLOCK20/SES2066/0512066009_h_00.WAV	N	S
BLOCK20/SES2066/0512066011_h_00.WAV	N	S
BLOCK20/SES2066/0512066016_h_00.WAV	N	S
BLOCK20/SES2066/0512066017_h_00.WAV	N	S
BLOCK20/SES2066/0512066018_h_00.WAV	N	S
BLOCK20/SES2066/0512066021_h_00.WAV	N	S
BLOCK20/SES2066/0512066022_h_00.WAV	N	S
BLOCK20/SES2066/0512066025_h_00.WAV	N	S
BLOCK20/SES2066/0512066027_h_00.WAV	N	S
BLOCK20/SES2066/0512066028_h_00.WAV	N	S
BLOCK20/SES2066/0512066033_h_00.WAV	N	S
BLOCK20/SES2066/0512066035_h_00.WAV	N	S
BLOCK20/SES2066/0512066037_h_00.WAV	N	S
BLOCK20/SES2066/0512066039_h_00.WAV	N	S
BLOCK20/SES2066/0512066040_h_00.WAV	N	S
BLOCK20/SES2066/0512066043_h_00.WAV	N	S
BLOCK20/SES2066/0512066044_h_00.WAV	N	S
BLOCK20/SES2066/0512066045_h_00.WAV	N	S
BLOCK20/SES2066/0512066047_h_00.WAV	N	S
BLOCK20/SES2066/0512066052_h_01.WAV	N	S
BLOCK20/SES2066/0512066053_h_00.WAV	N	S
BLOCK20/SES2066/0512066054_h_00.WAV	N	S
BLOCK20/SES2066/0512066056_h_00.WAV	N	S
BLOCK20/SES2066/0512066057_h_00.WAV	N	S
BLOCK20/SES2066/0512066058_h_00.WAV	N	S
BLOCK40/SES4061/5724061002_h_00.WAV	N	S
BLOCK40/SES4061/5724061003_h_00.WAV	N	S
BLOCK40/SES4061/5724061005_h_00.WAV	N	S
BLOCK40/SES4061/5724061006_h_00.WAV	N	S
BLOCK40/SES4061/5724061007_h_00.WAV	N	S
BLOCK40/SES4061/5724061009_h_00.WAV	N	S
BLOCK40/SES4061/5724061011_h_00.WAV	N	S
BLOCK40/SES4061/5724061016_h_00.WAV	N	S
BLOCK40/SES4061/5724061017_h_00.WAV	N	S
BLOCK40/SES4061/5724061018_h_00.WAV	N	S
BLOCK40/SES4061/5724061021_h_00.WAV	N	S
BLOCK40/SES4061/5724061022_h_00.WAV	N	S
BLOCK40/SES4061/5724061025_h_00.WAV	N	S
BLOCK40/SES4061/5724061027_h_00.WAV	N	S
BLOCK40/SES4061/5724061028_h_00.WAV	N	S
BLOCK40/SES4061/5724061033_h_00.WAV	N	S
BLOCK40/SES4061/5724061035_h_00.WAV	N	S
BLOCK40/SES4061/5724061037_h_00.WAV	N	S
BLOCK40/SES4061/5724061039_h_00.WAV	N	S
BLOCK40/SES4061/5724061040_h_00.WAV	N	S
BLOCK40/SES4061/5724061043_h_00.WAV	N	S
BLOCK40/SES4061/5724061044_h_00.WAV	N	S
BLOCK40/SES4061/5724061045_h_00.WAV	N	S
BLOCK40/SES4061/5724061047_h_00.WAV	N	S
BLOCK40/SES4061/5724061052_h_00.WAV	N	S
BLOCK40/SES4061/5724061053_h_00.WAV	N	S
BLOCK40/SES4061/5724061054_h_00.WAV	N	S
BLOCK40/SES4061/5724061056_h_00.WAV	N	S
BLOCK40/SES4061/5724061057_h_00.WAV	N	S
BLOCK40/SES4061/5724061058_h_00.WAV	N	S
BLOCK20/SES2073/0882073002_h_00.WAV	N	S
BLOCK20/SES2073/0882073003_h_00.WAV	N	S
BLOCK20/SES2073/0882073005_h_00.WAV	N	S
BLOCK20/SES2073/0882073006_h_00.WAV	N	S
BLOCK20/SES2073/0882073007_h_00.WAV	N	S
BLOCK20/SES2073/0882073009_h_00.WAV	N	S
BLOCK20/SES2073/0882073011_h_00.WAV	N	S
BLOCK20/SES2073/0882073016_h_00.WAV	N	S
BLOCK20/SES2073/0882073017_h_00.WAV	N	S
BLOCK20/SES2073/0882073018_h_00.WAV	N	S
BLOCK20/SES2073/0882073021_h_00.WAV	N	S
BLOCK20/SES2073/0882073022_h_00.WAV	N	S
BLOCK20/SES2073/0882073025_h_00.WAV	N	S
BLOCK20/SES2073/0882073027_h_00.WAV	N	S
BLOCK20/SES2073/0882073028_h_00.WAV	N	S
BLOCK20/SES2073/0882073033_h_00.WAV	N	S
BLOCK20/SES2073/0882073035_h_00.WAV	N	S
BLOCK20/SES2073/0882073037_h_00.WAV	N	S
BLOCK20/SES2073/0882073039_h_00.WAV	N	S
BLOCK20/SES2073/0882073040_h_00.WAV	N	S
BLOCK20/SES2073/0882073043_h_00.WAV	N	S
BLOCK20/SES2073/0882073044_h_00.WAV	N	S
BLOCK20/SES2073/0882073045_h_00.WAV	N	S
BLOCK20/SES2073/0882073047_h_00.WAV	N	S
BLOCK20/SES2073/0882073052_h_00.WAV	N	S
BLOCK20/SES2073/0882073053_h_00.WAV	N	S
BLOCK20/SES2073/0882073054_h_00.WAV	N	S
BLOCK20/SES2073/0882073056_h_00.WAV	N	S
BLOCK20/SES2073/0882073057_h_00.WAV	N	S
BLOCK20/SES2073/0882073058_h_00.WAV	N	S
BLOCK40/SES4025/5134025002_h_00.WAV	N	S
BLOCK40/SES4025/5134025003_h_00.WAV	N	S
BLOCK40/SES4025/5134025005_h_00.WAV	N	S
BLOCK40/SES4025/5134025006_h_00.WAV	N	S
BLOCK40/SES4025/5134025007_h_00.WAV	N	S
BLOCK40/SES4025/5134025009_h_00.WAV	N	S
BLOCK40/SES4025/5134025011_h_00.WAV	N	S
BLOCK40/SES4025/5134025016_h_00.WAV	N	S
BLOCK40/SES4025/5134025017_h_00.WAV	N	S
BLOCK40/SES4025/5134025018_h_00.WAV	N	S
BLOCK40/SES4025/5134025021_h_00.WAV	N	S
BLOCK40/SES4025/5134025022_h_00.WAV	N	S
BLOCK40/SES4025/5134025025_h_00.WAV	N	S
BLOCK40/SES4025/5134025027_h_00.WAV	N	S
BLOCK40/SES4025/5134025028_h_00.WAV	N	S
BLOCK40/SES4025/5134025033_h_00.WAV	N	S
BLOCK40/SES4025/5134025035_h_00.WAV	N	S
BLOCK40/SES4025/5134025037_h_00.WAV	N	S
BLOCK40/SES4025/5134025039_h_00.WAV	N	S
BLOCK40/SES4025/5134025040_h_00.WAV	N	S
BLOCK40/SES4025/5134025043_h_00.WAV	N	S
BLOCK40/SES4025/5134025044_h_00.WAV	N	S
BLOCK40/SES4025/5134025045_h_00.WAV	N	S
BLOCK40/SES4025/5134025047_h_00.WAV	N	S
BLOCK40/SES4025/5134025052_h_00.WAV	N	S
BLOCK40/SES4025/5134025053_h_00.WAV	N	S
BLOCK40/SES4025/5134025054_h_01.WAV	N	S
BLOCK40/SES4025/5134025056_h_00.WAV	N	S
BLOCK40/SES4025/5134025057_h_00.WAV	N	S
BLOCK40/SES4025/5134025058_h_00.WAV	N	S
BLOCK40/SES4013/5174013002_h_00.WAV	N	S
BLOCK40/SES4013/5174013003_h_00.WAV	N	S
BLOCK40/SES4013/5174013005_h_00.WAV	N	S
BLOCK40/SES4013/5174013006_h_00.WAV	N	S
BLOCK40/SES4013/5174013007_h_00.WAV	N	S
BLOCK40/SES4013/5174013009_h_00.WAV	N	S
BLOCK40/SES4013/5174013011_h_00.WAV	N	S
BLOCK40/SES4013/5174013016_h_00.WAV	N	S
BLOCK40/SES4013/5174013017_h_00.WAV	N	S
BLOCK40/SES4013/5174013018_h_00.WAV	N	S
BLOCK40/SES4013/5174013021_h_00.WAV	N	S
BLOCK40/SES4013/5174013022_h_00.WAV	N	S
BLOCK40/SES4013/5174013025_h_00.WAV	N	S
BLOCK40/SES4013/5174013027_h_00.WAV	N	S
BLOCK40/SES4013/5174013028_h_00.WAV	N	S
BLOCK40/SES4013/5174013033_h_00.WAV	N	S
BLOCK40/SES4013/5174013035_h_00.WAV	N	S
BLOCK40/SES4013/5174013037_h_00.WAV	N	S
BLOCK40/SES4013/5174013039_h_00.WAV	N	S
BLOCK40/SES4013/5174013040_h_00.WAV	N	S
BLOCK40/SES4013/5174013043_h_00.WAV	N	S
BLOCK40/SES4013/5174013044_h_00.WAV	N	S
BLOCK40/SES4013/5174013045_h_00.WAV	N	S
BLOCK40/SES4013/5174013047_h_00.WAV	N	S
BLOCK40/SES4013/5174013052_h_00.WAV	N	S
BLOCK40/SES4013/5174013053_h_00.WAV	N	S
BLOCK40/SES4013/5174013054_h_00.WAV	N	S
BLOCK40/SES4013/5174013056_h_00.WAV	N	S
BLOCK40/SES4013/5174013057_h_00.WAV	N	S
BLOCK40/SES4013/5174013058_h_00.WAV	N	S
BLOCK40/SES4033/5504033002_h_00.WAV	N	S
BLOCK40/SES4033/5504033003_h_00.WAV	N	S
BLOCK40/SES4033/5504033005_h_00.WAV	N	S
BLOCK40/SES4033/5504033006_h_00.WAV	N	S
BLOCK40/SES4033/5504033007_h_00.WAV	N	S
BLOCK40/SES4033/5504033009_h_00.WAV	N	S
BLOCK40/SES4033/5504033011_h_00.WAV	N	S
BLOCK40/SES4033/5504033016_h_00.WAV	N	S
BLOCK40/SES4033/5504033017_h_00.WAV	N	S
BLOCK40/SES4033/5504033018_h_00.WAV	N	S
BLOCK40/SES4033/5504033021_h_00.WAV	N	S
BLOCK40/SES4033/5504033022_h_00.WAV	N	S
BLOCK40/SES4033/5504033025_h_00.WAV	N	S
BLOCK40/SES4033/5504033027_h_00.WAV	N	S
BLOCK40/SES4033/5504033028_h_00.WAV	N	S
BLOCK40/SES4033/5504033033_h_00.WAV	N	S
BLOCK40/SES4033/5504033035_h_00.WAV	N	S
BLOCK40/SES4033/5504033037_h_00.WAV	N	S
BLOCK40/SES4033/5504033039_h_00.WAV	N	S
BLOCK40/SES4033/5504033040_h_00.WAV	N	S
BLOCK40/SES4033/5504033043_h_00.WAV	N	S
BLOCK40/SES4033/5504033044_h_00.WAV	N	S
BLOCK40/SES4033/5504033045_h_00.WAV	N	S
BLOCK40/SES4033/5504033047_h_00.WAV	N	S
BLOCK40/SES4033/5504033052_h_00.WAV	N	S
BLOCK40/SES4033/5504033053_h_00.WAV	N	S
BLOCK40/SES4033/5504033054_h_00.WAV	N	S
BLOCK40/SES4033/5504033056_h_00.WAV	N	S
BLOCK40/SES4033/5504033057_h_00.WAV	N	S
BLOCK40/SES4033/5504033058_h_00.WAV	N	S
BLOCK40/SES4071/5854071002_h_00.WAV	N	S
BLOCK40/SES4071/5854071003_h_00.WAV	N	S
BLOCK40/SES4071/5854071005_h_00.WAV	N	S
BLOCK40/SES4071/5854071006_h_00.WAV	N	S
BLOCK40/SES4071/5854071007_h_00.WAV	N	S
BLOCK40/SES4071/5854071009_h_00.WAV	N	S
BLOCK40/SES4071/5854071011_h_00.WAV	N	S
BLOCK40/SES4071/5854071016_h_00.WAV	N	S
BLOCK40/SES4071/5854071017_h_00.WAV	N	S
BLOCK40/SES4071/5854071018_h_00.WAV	N	S
BLOCK40/SES4071/5854071021_h_00.WAV	N	S
BLOCK40/SES4071/5854071022_h_00.WAV	N	S
BLOCK40/SES4071/5854071025_h_00.WAV	N	S
BLOCK40/SES4071/5854071027_h_00.WAV	N	S
BLOCK40/SES4071/5854071028_h_00.WAV	N	S
BLOCK40/SES4071/5854071033_h_00.WAV	N	S
BLOCK40/SES4071/5854071035_h_00.WAV	N	S
BLOCK40/SES4071/5854071037_h_00.WAV	N	S
BLOCK40/SES4071/5854071039_h_00.WAV	N	S
BLOCK40/SES4071/5854071040_h_00.WAV	N	S
BLOCK40/SES4071/5854071043_h_00.WAV	N	S
BLOCK40/SES4071/5854071044_h_00.WAV	N	S
BLOCK40/SES4071/5854071045_h_00.WAV	N	S
BLOCK40/SES4071/5854071047_h_00.WAV	N	S
BLOCK40/SES4071/5854071052_h_00.WAV	N	S
BLOCK40/SES4071/5854071053_h_00.WAV	N	S
BLOCK40/SES4071/5854071054_h_00.WAV	N	S
BLOCK40/SES4071/5854071056_h_00.WAV	N	S
BLOCK40/SES4071/5854071057_h_00.WAV	N	S
BLOCK40/SES4071/5854071058_h_00.WAV	N	S
BLOCK40/SES4065/5624065002_h_00.WAV	N	S
BLOCK40/SES4065/5624065003_h_00.WAV	N	S
BLOCK40/SES4065/5624065005_h_00.WAV	N	S
BLOCK40/SES4065/5624065006_h_00.WAV	N	S
BLOCK40/SES4065/5624065007_h_00.WAV	N	S
BLOCK40/SES4065/5624065009_h_00.WAV	N	S
BLOCK40/SES4065/5624065011_h_00.WAV	N	S
BLOCK40/SES4065/5624065016_h_00.WAV	N	S
BLOCK40/SES4065/5624065017_h_00.WAV	N	S
BLOCK40/SES4065/5624065018_h_00.WAV	N	S
BLOCK40/SES4065/5624065021_h_00.WAV	N	S
BLOCK40/SES4065/5624065022_h_00.WAV	N	S
BLOCK40/SES4065/5624065025_h_00.WAV	N	S
BLOCK40/SES4065/5624065027_h_00.WAV	N	S
BLOCK40/SES4065/5624065028_h_00.WAV	N	S
BLOCK40/SES4065/5624065033_h_00.WAV	N	S
BLOCK40/SES4065/5624065035_h_00.WAV	N	S
BLOCK40/SES4065/5624065037_h_00.WAV	N	S
BLOCK40/SES4065/5624065039_h_00.WAV	N	S
BLOCK40/SES4065/5624065040_h_00.WAV	N	S
BLOCK40/SES4065/5624065043_h_00.WAV	N	S
BLOCK40/SES4065/5624065044_h_00.WAV	N	S
BLOCK40/SES4065/5624065045_h_00.WAV	N	S
BLOCK40/SES4065/5624065047_h_00.WAV	N	S
BLOCK40/SES4065/5624065052_h_00.WAV	N	S
BLOCK40/SES4065/5624065053_h_00.WAV	N	S
BLOCK40/SES4065/5624065054_h_00.WAV	N	S
BLOCK40/SES4065/5624065056_h_00.WAV	N	S
BLOCK40/SES4065/5624065057_h_00.WAV	N	S
BLOCK40/SES4065/5624065058_h_00.WAV	N	S
BLOCK20/SES2023/0182023002_h_00.WAV	N	S
BLOCK20/SES2023/0182023003_h_00.WAV	N	S
BLOCK20/SES2023/0182023005_h_00.WAV	N	S
BLOCK20/SES2023/0182023006_h_00.WAV	N	S
BLOCK20/SES2023/0182023007_h_00.WAV	N	S
BLOCK20/SES2023/0182023009_h_00.WAV	N	S
BLOCK20/SES2023/0182023011_h_00.WAV	N	S
BLOCK20/SES2023/0182023016_h_00.WAV	N	S
BLOCK20/SES2023/0182023017_h_00.WAV	N	S
BLOCK20/SES2023/0182023018_h_00.WAV	N	S
BLOCK20/SES2023/0182023021_h_00.WAV	N	S
BLOCK20/SES2023/0182023022_h_00.WAV	N	S
BLOCK20/SES2023/0182023025_h_00.WAV	N	S
BLOCK20/SES2023/0182023027_h_00.WAV	N	S
BLOCK20/SES2023/0182023028_h_00.WAV	N	S
BLOCK20/SES2023/0182023033_h_00.WAV	N	S
BLOCK20/SES2023/0182023035_h_00.WAV	N	S
BLOCK20/SES2023/0182023037_h_00.WAV	N	S
BLOCK20/SES2023/0182023039_h_00.WAV	N	S
BLOCK20/SES2023/0182023040_h_00.WAV	N	S
BLOCK20/SES2023/0182023043_h_00.WAV	N	S
BLOCK20/SES2023/0182023044_h_00.WAV	N	S
BLOCK20/SES2023/0182023045_h_00.WAV	N	S
BLOCK20/SES2023/0182023047_h_00.WAV	N	S
BLOCK20/SES2023/0182023052_h_00.WAV	N	S
BLOCK20/SES2023/0182023053_h_00.WAV	N	S
BLOCK20/SES2023/0182023054_h_00.WAV	N	S
BLOCK20/SES2023/0182023056_h_00.WAV	N	S
BLOCK20/SES2023/0182023057_h_00.WAV	N	S
BLOCK20/SES2023/0182023058_h_00.WAV	N	S
BLOCK40/SES4028/5054028002_h_00.WAV	N	S
BLOCK40/SES4028/5054028003_h_00.WAV	N	S
BLOCK40/SES4028/5054028005_h_00.WAV	N	S
BLOCK40/SES4028/5054028006_h_00.WAV	N	S
BLOCK40/SES4028/5054028007_h_00.WAV	N	S
BLOCK40/SES4028/5054028009_h_00.WAV	N	S
BLOCK40/SES4028/5054028011_h_00.WAV	N	S
BLOCK40/SES4028/5054028016_h_00.WAV	N	S
BLOCK40/SES4028/5054028017_h_00.WAV	N	S
BLOCK40/SES4028/5054028018_h_00.WAV	N	S
BLOCK40/SES4028/5054028021_h_00.WAV	N	S
BLOCK40/SES4028/5054028022_h_00.WAV	N	S
BLOCK40/SES4028/5054028025_h_00.WAV	N	S
BLOCK40/SES4028/5054028027_h_00.WAV	N	S
BLOCK40/SES4028/5054028028_h_00.WAV	N	S
BLOCK40/SES4028/5054028033_h_00.WAV	N	S
BLOCK40/SES4028/5054028035_h_00.WAV	N	S
BLOCK40/SES4028/5054028037_h_00.WAV	N	S
BLOCK40/SES4028/5054028039_h_00.WAV	N	S
BLOCK40/SES4028/5054028040_h_00.WAV	N	S
BLOCK40/SES4028/5054028043_h_00.WAV	N	S
BLOCK40/SES4028/5054028044_h_00.WAV	N	S
BLOCK40/SES4028/5054028045_h_00.WAV	N	S
BLOCK40/SES4028/5054028047_h_00.WAV	N	S
BLOCK40/SES4028/5054028052_h_00.WAV	N	S
BLOCK40/SES4028/5054028053_h_00.WAV	N	S
BLOCK40/SES4028/5054028054_h_00.WAV	N	S
BLOCK40/SES4028/5054028056_h_00.WAV	N	S
BLOCK40/SES4028/5054028057_h_00.WAV	N	S
BLOCK40/SES4028/5054028058_h_00.WAV	N	S
BLOCK40/SES4063/5574063002_h_00.WAV	N	S
BLOCK40/SES4063/5574063003_h_00.WAV	N	S
BLOCK40/SES4063/5574063005_h_00.WAV	N	S
BLOCK40/SES4063/5574063006_h_00.WAV	N	S
BLOCK40/SES4063/5574063007_h_00.WAV	N	S
BLOCK40/SES4063/5574063009_h_00.WAV	N	S
BLOCK40/SES4063/5574063011_h_00.WAV	N	S
BLOCK40/SES4063/5574063016_h_00.WAV	N	S
BLOCK40/SES4063/5574063017_h_00.WAV	N	S
BLOCK40/SES4063/5574063018_h_00.WAV	N	S
BLOCK40/SES4063/5574063021_h_00.WAV	N	S
BLOCK40/SES4063/5574063022_h_00.WAV	N	S
BLOCK40/SES4063/5574063025_h_00.WAV	N	S
BLOCK40/SES4063/5574063027_h_00.WAV	N	S
BLOCK40/SES4063/5574063028_h_00.WAV	N	S
BLOCK40/SES4063/5574063033_h_00.WAV	N	S
BLOCK40/SES4063/5574063035_h_00.WAV	N	S
BLOCK40/SES4063/5574063037_h_00.WAV	N	S
BLOCK40/SES4063/5574063039_h_00.WAV	N	S
BLOCK40/SES4063/5574063040_h_00.WAV	N	S
BLOCK40/SES4063/5574063043_h_00.WAV	N	S
BLOCK40/SES4063/5574063044_h_00.WAV	N	S
BLOCK40/SES4063/5574063045_h_00.WAV	N	S
BLOCK40/SES4063/5574063047_h_00.WAV	N	S
BLOCK40/SES4063/5574063052_h_00.WAV	N	S
BLOCK40/SES4063/5574063053_h_00.WAV	N	S
BLOCK40/SES4063/5574063054_h_00.WAV	N	S
BLOCK40/SES4063/5574063056_h_00.WAV	N	S
BLOCK40/SES4063/5574063057_h_00.WAV	N	S
BLOCK40/SES4063/5574063058_h_00.WAV	N	S
BLOCK40/SES4055/5694055002_h_00.WAV	N	S
BLOCK40/SES4055/5694055003_h_00.WAV	N	S
BLOCK40/SES4055/5694055005_h_00.WAV	N	S
BLOCK40/SES4055/5694055006_h_00.WAV	N	S
BLOCK40/SES4055/5694055007_h_00.WAV	N	S
BLOCK40/SES4055/5694055009_h_00.WAV	N	S
BLOCK40/SES4055/5694055011_h_00.WAV	N	S
BLOCK40/SES4055/5694055016_h_00.WAV	N	S
BLOCK40/SES4055/5694055017_h_00.WAV	N	S
BLOCK40/SES4055/5694055018_h_00.WAV	N	S
BLOCK40/SES4055/5694055021_h_00.WAV	N	S
BLOCK40/SES4055/5694055022_h_00.WAV	N	S
BLOCK40/SES4055/5694055025_h_00.WAV	N	S
BLOCK40/SES4055/5694055027_h_00.WAV	N	S
BLOCK40/SES4055/5694055028_h_00.WAV	N	S
BLOCK40/SES4055/5694055033_h_00.WAV	N	S
BLOCK40/SES4055/5694055035_h_00.WAV	N	S
BLOCK40/SES4055/5694055037_h_00.WAV	N	S
BLOCK40/SES4055/5694055039_h_00.WAV	N	S
BLOCK40/SES4055/5694055040_h_00.WAV	N	S
BLOCK40/SES4055/5694055043_h_00.WAV	N	S
BLOCK40/SES4055/5694055044_h_00.WAV	N	S
BLOCK40/SES4055/5694055045_h_00.WAV	N	S
BLOCK40/SES4055/5694055047_h_00.WAV	N	S
BLOCK40/SES4055/5694055052_h_00.WAV	N	S
BLOCK40/SES4055/5694055053_h_00.WAV	N	S
BLOCK40/SES4055/5694055054_h_00.WAV	N	S
BLOCK40/SES4055/5694055056_h_00.WAV	N	S
BLOCK40/SES4055/5694055057_h_00.WAV	N	S
BLOCK40/SES4055/5694055058_h_00.WAV	N	S
BLOCK20/SES2051/0582051002_h_00.WAV	N	S
BLOCK20/SES2051/0582051003_h_00.WAV	N	S
BLOCK20/SES2051/0582051005_h_00.WAV	N	S
BLOCK20/SES2051/0582051006_h_00.WAV	N	S
BLOCK20/SES2051/0582051007_h_00.WAV	N	S
BLOCK20/SES2051/0582051009_h_00.WAV	N	S
BLOCK20/SES2051/0582051011_h_00.WAV	N	S
BLOCK20/SES2051/0582051016_h_00.WAV	N	S
BLOCK20/SES2051/0582051017_h_00.WAV	N	S
BLOCK20/SES2051/0582051018_h_00.WAV	N	S
BLOCK20/SES2051/0582051021_h_00.WAV	N	S
BLOCK20/SES2051/0582051022_h_00.WAV	N	S
BLOCK20/SES2051/0582051025_h_00.WAV	N	S
BLOCK20/SES2051/0582051027_h_00.WAV	N	S
BLOCK20/SES2051/0582051028_h_00.WAV	N	S
BLOCK20/SES2051/0582051033_h_00.WAV	N	S
BLOCK20/SES2051/0582051035_h_00.WAV	N	S
BLOCK20/SES2051/0582051037_h_00.WAV	N	S
BLOCK20/SES2051/0582051039_h_00.WAV	N	S
BLOCK20/SES2051/0582051040_h_00.WAV	N	S
BLOCK20/SES2051/0582051043_h_00.WAV	N	S
BLOCK20/SES2051/0582051044_h_00.WAV	N	S
BLOCK20/SES2051/0582051045_h_00.WAV	N	S
BLOCK20/SES2051/0582051047_h_00.WAV	N	S
BLOCK20/SES2051/0582051052_h_00.WAV	N	S
BLOCK20/SES2051/0582051053_h_00.WAV	N	S
BLOCK20/SES2051/0582051054_h_00.WAV	N	S
BLOCK20/SES2051/0582051056_h_00.WAV	N	S
BLOCK20/SES2051/0582051057_h_00.WAV	N	S
BLOCK20/SES2051/0582051058_h_00.WAV	N	S
BLOCK20/SES2014/0062014002_h_00.WAV	N	S
BLOCK20/SES2014/0062014003_h_00.WAV	N	S
BLOCK20/SES2014/0062014005_h_00.WAV	N	S
BLOCK20/SES2014/0062014006_h_00.WAV	N	S
BLOCK20/SES2014/0062014007_h_00.WAV	N	S
BLOCK20/SES2014/0062014009_h_00.WAV	N	S
BLOCK20/SES2014/0062014011_h_00.WAV	N	S
BLOCK20/SES2014/0062014016_h_00.WAV	N	S
BLOCK20/SES2014/0062014017_h_00.WAV	N	S
BLOCK20/SES2014/0062014018_h_00.WAV	N	S
BLOCK20/SES2014/0062014021_h_00.WAV	N	S
BLOCK20/SES2014/0062014022_h_00.WAV	N	S
BLOCK20/SES2014/0062014025_h_00.WAV	N	S
BLOCK20/SES2014/0062014027_h_00.WAV	N	S
BLOCK20/SES2014/0062014028_h_00.WAV	N	S
BLOCK20/SES2014/0062014033_h_00.WAV	N	S
BLOCK20/SES2014/0062014035_h_00.WAV	N	S
BLOCK20/SES2014/0062014037_h_00.WAV	N	S
BLOCK20/SES2014/0062014039_h_00.WAV	N	S
BLOCK20/SES2014/0062014040_h_00.WAV	N	S
BLOCK20/SES2014/0062014043_h_00.WAV	N	S
BLOCK20/SES2014/0062014044_h_00.WAV	N	S
BLOCK20/SES2014/0062014045_h_00.WAV	N	S
BLOCK20/SES2014/0062014047_h_00.WAV	N	S
BLOCK20/SES2014/0062014052_h_00.WAV	N	S
BLOCK20/SES2014/0062014053_h_00.WAV	N	S
BLOCK20/SES2014/0062014054_h_00.WAV	N	S
BLOCK20/SES2014/0062014056_h_00.WAV	N	S
BLOCK20/SES2014/0062014057_h_00.WAV	N	S
BLOCK20/SES2014/0062014058_h_00.WAV	N	S
