TRAIN	532	M	0.001130	906	0.00104
TRAIN	081	M	0.001190	583	0.00109
TRAIN	075	M	0.000960	727	0.00101
TRAIN	047	M	0.001250	108	0.00143
TRAIN	009	M	0.000940	175	0.00087
TRAIN	547	F	0.001050	886	0.00117
TRAIN	060	F	0.001240	602	0.00126
TRAIN	549	F	0.001020	293	0.00105
TRAIN	059	F	0.000500	130	0.00056
TRAIN	071	F	0.000810	728	0.00084
TRAIN	100	F	0.000630	037	0.00060
TRAIN	531	M	0.000870	154	0.00089
TRAIN	552	F	0.000910	730	0.00095
TRAIN	057	M	0.000590	084	0.00066
TRAIN	554	F	0.000620	083	0.00070
TRAIN	008	M	0.000590	193	0.00098
TRAIN	574	F	0.000930	714	0.00098
TRAIN	053	F	0.000760	346	0.00078
TRAIN	029	F	0.001470	824	0.00134
TRAIN	544	M	0.001170	369	0.00123
TRAIN	530	F	0.000800	923	0.00083
TRAIN	527	M	0.001150	187	0.00111
TRAIN	092	F	0.000660	642	0.00073
TRAIN	038	F	0.000920	196	0.00093
TRAIN	581	M	0.000490	933	0.00048
TRAIN	016	M	0.001100	649	0.00110
TRAIN	086	M	0.001440	903	0.00137
TRAIN	062	M	0.000630	620	0.00065
TRAIN	035	F	0.000740	089	0.00082
TRAIN	528	M	0.001120	517	0.00086
TRAIN	095	M	0.001080	925	0.00106
TRAIN	501	M	0.000620	885	0.00059
TRAIN	101	M	0.000570	325	0.00057
TRAIN	040	F	0.000860	546	0.00094
TRAIN	590	M	0.000830	998	0.00072
TRAIN	524	M	0.001140	248	0.00110
TRAIN	036	F	0.000670	176	0.00093
TRAIN	545	M	0.000610	042	0.00063
TRAIN	069	M	0.000740	271	0.00077
TRAIN	017	M	0.001600	917	0.00160
TRAIN	525	F	0.001070	281	0.00104
TRAIN	518	M	0.000510	835	0.00042
TRAIN	013	M	0.000620	068	0.00061
TRAIN	570	M	0.000850	729	0.00093
TRAIN	534	M	0.000690	372	0.00080
TRAIN	578	F	0.000890	436	0.00081
TRAIN	010	M	0.000580	486	0.00052
TRAIN	587	M	0.000830	378	0.00079
TRAIN	556	M	0.001170	163	0.00128
TRAIN	594	F	0.000540	209	0.00046
TRAIN	090	F	0.001270	179	0.00127
TRAIN	520	F	0.000830	471	0.00043
TRAIN	012	F	0.000550	131	0.00053
TRAIN	024	F	0.000230	402	0.00023
TRAIN	061	F	0.001250	732	0.00080
TRAIN	011	F	0.000450	512	0.00047
TRAIN	049	F	0.001200	219	0.00143
TRAIN	022	F	0.000570	887	0.00068
TRAIN	506	F	0.000340	397	0.00044
TRAIN	030	F	0.001090	884	0.00108
D1	027	M	0.000680	074	0.00066
D1	546	F	0.001340	115	0.00141
D1	103	M	0.000950	148	0.00111
D1	521	F	0.000700	061	0.00071
D1	507	F	0.000800	888	0.00069
D1	096	M	0.000680	073	0.00064
D1	098	M	0.000910	706	0.00075
D1	064	F	0.000920	481	0.00087
D1	080	M	0.001460	569	0.00143
D1	543	F	0.000470	924	0.00047
D1	083	M	0.001090	743	0.00099
D1	099	F	0.000420	663	0.00057
D1	037	M	0.000760	173	0.00079
D1	028	M	0.001270	188	0.00107
D1	591	M	0.000840	174	0.00094
D1	573	M	0.001000	446	0.00100
D1	583	F	0.000860	696	0.00083
D1	063	M	0.000780	556	0.00074
D1	537	M	0.000990	100	0.00123
D1	026	M	0.001330	668	0.00137
D1	596	M	0.000810	331	0.00071
D1	078	F	0.000950	010	0.00087
D1	529	F	0.001140	821	0.00113
D1	558	F	0.000920	852	0.00095
D1	561	F	0.000520	766	0.00051
D1	536	M	0.000510	594	0.00051
D1	589	F	0.000860	859	0.00093
D1	042	F	0.000950	873	0.00104
D1	541	F	0.001320	713	0.00130
D1	571	M	0.000720	295	0.00074
D1	023	F	0.000390	309	0.00039
D1	555	M	0.000850	332	0.00081
D1	560	F	0.000970	699	0.00115
D1	079	F	0.001160	093	0.00112
D1	091	F	0.001680	551	0.00182
D1	048	M	0.000500	816	0.00049
D1	504	F	0.001040	745	0.00109
D1	102	M	0.000950	911	0.00078
D1	097	M	0.000610	254	0.00066
D1	046	F	0.001040	930	0.00109
D1	020	M	0.001230	764	0.00112
D1	548	F	0.000550	988	0.00062
D1	087	M	0.000840	341	0.00075
D1	082	F	0.000300	791	0.00028
D2_TEST	565	M	0.001090	ZAM	0.00097
D2_TEST	533	M	0.000980	YBN	0.00089
D2_TEST	019	F	0.000490	XCP	0.0004
D2_TEST	039	F	0.000900	WDO	0.00099
D2_TEST	582	M	0.001320	VEW	0.00122
D2_TEST	007	M	0.000740	UFL	0.00070
D2_TEST	074	F	0.000700	TGG	0.00079
D2_TEST	542	F	0.001180	SHD	0.00122
D2_TEST	072	M	0.000790	LIL	0.00086
D2_TEST	576	F	0.001290	KJT	0.00135
D2_TEST	526	M	0.000910	JKF	0.00085
D2_TEST	595	F	0.000700	ILS	0.00063
D2_TEST	015	F	0.000980	HMO	0.00098
D2_TEST	055	F	0.000830	GNW	0.00105
D2_TEST	514	M	0.000340	ROP	0.00029
D2_TEST	025	F	0.000830	QPU	0.0005
D2_TEST	577	F	0.001270	PQO	0.00114
D2_TEST	508	M	0.000720	ORM	0.00069
D2_TEST	511	M	0.000670	NSB	0.0008
D2_TEST	070	M	0.001030	MTC	0.00091
D2_TEST	073	M	0.001000	FUC	0.00176
D2_TEST	522	F	0.000720	EVS	0.00071
D2_TEST	050	F	0.000620	DWS	0.00058
D2_TEST	089	M	0.001310	CZT	0.00142
D2_TEST	563	M	0.000760	BXB	0.00068
D2_TEST	077	M	0.001420	AYC	0.00138
D2_TEST	568	M	0.000280	XJX	0.00024
D2_TEST	032	M	0.000990	WKM	0.00094
D2_TEST	500	F	0.001200	VLR	0.00117
D2_TEST	584	M	0.001750	UMW	0.00161
D2_TEST	034	M	0.001140	TNF	0.00112
D2_TEST	065	F	0.000630	SOH	0.00061
D2_TEST	502	F	0.001300	LPS	0.00140
D2_TEST	575	M	0.001090	KQP	0.00109
D2_TEST	031	F	0.000920	JRR	0.00092
D2_TEST	551	M	0.000890	ISF	0.00070
D2_TEST	051	M	0.000510	HTH	0.00044
D2_TEST	572	M	0.000890	GXK	0.00133
D2_TEST	088	M	0.001050	RUS	0.00124
D2_TEST	513	F	0.000710	QYR	0.00048
D2_TEST	517	F	0.000800	PVN	0.00058
D2_TEST	550	M	0.000550	OZJ	0.00052
D2_TEST	585	F	0.001300	NWM	0.00124
D2_TEST	562	M	0.000640	MXM	0.00060
D2_TEST	018	F	0.000700	FYS	0.00053
D2_TEST	505	F	0.001180	EAE	0.00100
D2_TEST	557	F	0.000770	DCE	0.00084
D2_TEST	569	F	0.000470	CEZ	0.00057
D2_TEST	058	F	0.001160	BGL	0.00109
D2_TEST	006	F	0.000730	AJA	0.00081
